(kicad_sch (version 20210621) (generator eeschema)

  (uuid 5c02e36a-db2d-460e-8014-2e02e2e1d8d2)

  (paper "A4")

  (lib_symbols
    (symbol "keebio:ProMicro" (pin_names (offset 1.016)) (in_bom yes) (on_board yes)
      (property "Reference" "U" (id 0) (at 0 0 0)
        (effects (font (size 1.524 1.524)))
      )
      (property "Value" "ProMicro" (id 1) (at 0 -19.05 0)
        (effects (font (size 1.524 1.524)))
      )
      (property "Footprint" "" (id 2) (at 26.67 -63.5 90)
        (effects (font (size 1.524 1.524)) hide)
      )
      (property "Datasheet" "" (id 3) (at 26.67 -63.5 90)
        (effects (font (size 1.524 1.524)) hide)
      )
      (symbol "ProMicro_0_1"
        (rectangle (start -12.7 -16.51) (end 12.7 16.51)
          (stroke (width 0)) (fill (type none))
        )
      )
      (symbol "ProMicro_1_1"
        (pin input line (at -17.78 13.97 0) (length 5.08)
          (name "TX0/PD3" (effects (font (size 1.27 1.27))))
          (number "1" (effects (font (size 1.27 1.27))))
        )
        (pin input line (at -17.78 -8.89 0) (length 5.08)
          (name "7/PE6" (effects (font (size 1.27 1.27))))
          (number "10" (effects (font (size 1.27 1.27))))
        )
        (pin input line (at -17.78 -11.43 0) (length 5.08)
          (name "8/PB4" (effects (font (size 1.27 1.27))))
          (number "11" (effects (font (size 1.27 1.27))))
        )
        (pin input line (at -17.78 -13.97 0) (length 5.08)
          (name "9/PB5" (effects (font (size 1.27 1.27))))
          (number "12" (effects (font (size 1.27 1.27))))
        )
        (pin input line (at 17.78 -13.97 180) (length 5.08)
          (name "10/PB6" (effects (font (size 1.27 1.27))))
          (number "13" (effects (font (size 1.27 1.27))))
        )
        (pin input line (at 17.78 -11.43 180) (length 5.08)
          (name "16/PB2" (effects (font (size 1.27 1.27))))
          (number "14" (effects (font (size 1.27 1.27))))
        )
        (pin input line (at 17.78 -8.89 180) (length 5.08)
          (name "14/PB3" (effects (font (size 1.27 1.27))))
          (number "15" (effects (font (size 1.27 1.27))))
        )
        (pin input line (at 17.78 -6.35 180) (length 5.08)
          (name "15/PB1" (effects (font (size 1.27 1.27))))
          (number "16" (effects (font (size 1.27 1.27))))
        )
        (pin input line (at 17.78 -3.81 180) (length 5.08)
          (name "A0/PF7" (effects (font (size 1.27 1.27))))
          (number "17" (effects (font (size 1.27 1.27))))
        )
        (pin input line (at 17.78 -1.27 180) (length 5.08)
          (name "A1/PF6" (effects (font (size 1.27 1.27))))
          (number "18" (effects (font (size 1.27 1.27))))
        )
        (pin input line (at 17.78 1.27 180) (length 5.08)
          (name "A2/PF5" (effects (font (size 1.27 1.27))))
          (number "19" (effects (font (size 1.27 1.27))))
        )
        (pin input line (at -17.78 11.43 0) (length 5.08)
          (name "RX1/PD2" (effects (font (size 1.27 1.27))))
          (number "2" (effects (font (size 1.27 1.27))))
        )
        (pin input line (at 17.78 3.81 180) (length 5.08)
          (name "A3/PF4" (effects (font (size 1.27 1.27))))
          (number "20" (effects (font (size 1.27 1.27))))
        )
        (pin input line (at 17.78 6.35 180) (length 5.08)
          (name "VCC" (effects (font (size 1.27 1.27))))
          (number "21" (effects (font (size 1.27 1.27))))
        )
        (pin input line (at 17.78 8.89 180) (length 5.08)
          (name "RST" (effects (font (size 1.27 1.27))))
          (number "22" (effects (font (size 1.27 1.27))))
        )
        (pin input line (at 17.78 11.43 180) (length 5.08)
          (name "GND" (effects (font (size 1.27 1.27))))
          (number "23" (effects (font (size 1.27 1.27))))
        )
        (pin input line (at 17.78 13.97 180) (length 5.08)
          (name "RAW" (effects (font (size 1.27 1.27))))
          (number "24" (effects (font (size 1.27 1.27))))
        )
        (pin input line (at -17.78 8.89 0) (length 5.08)
          (name "GND" (effects (font (size 1.27 1.27))))
          (number "3" (effects (font (size 1.27 1.27))))
        )
        (pin input line (at -17.78 6.35 0) (length 5.08)
          (name "GND" (effects (font (size 1.27 1.27))))
          (number "4" (effects (font (size 1.27 1.27))))
        )
        (pin input line (at -17.78 3.81 0) (length 5.08)
          (name "2/PD1" (effects (font (size 1.27 1.27))))
          (number "5" (effects (font (size 1.27 1.27))))
        )
        (pin input line (at -17.78 1.27 0) (length 5.08)
          (name "3/PD0" (effects (font (size 1.27 1.27))))
          (number "6" (effects (font (size 1.27 1.27))))
        )
        (pin input line (at -17.78 -1.27 0) (length 5.08)
          (name "4/PD4" (effects (font (size 1.27 1.27))))
          (number "7" (effects (font (size 1.27 1.27))))
        )
        (pin input line (at -17.78 -3.81 0) (length 5.08)
          (name "5/PC6" (effects (font (size 1.27 1.27))))
          (number "8" (effects (font (size 1.27 1.27))))
        )
        (pin input line (at -17.78 -6.35 0) (length 5.08)
          (name "6/PD7" (effects (font (size 1.27 1.27))))
          (number "9" (effects (font (size 1.27 1.27))))
        )
      )
    )
    (symbol "keebio:TRRS" (pin_names (offset 1.016)) (in_bom yes) (on_board yes)
      (property "Reference" "U" (id 0) (at 0 15.24 0)
        (effects (font (size 1.524 1.524)))
      )
      (property "Value" "TRRS" (id 1) (at 0 -2.54 0)
        (effects (font (size 1.524 1.524)))
      )
      (property "Footprint" "" (id 2) (at 3.81 0 0)
        (effects (font (size 1.524 1.524)) hide)
      )
      (property "Datasheet" "" (id 3) (at 3.81 0 0)
        (effects (font (size 1.524 1.524)) hide)
      )
      (symbol "TRRS_0_1"
        (rectangle (start -3.81 0) (end -3.81 12.7)
          (stroke (width 0)) (fill (type none))
        )
        (rectangle (start -3.81 12.7) (end 5.08 12.7)
          (stroke (width 0)) (fill (type none))
        )
        (rectangle (start 5.08 0) (end -3.81 0)
          (stroke (width 0)) (fill (type none))
        )
        (rectangle (start 5.08 12.7) (end 5.08 0)
          (stroke (width 0)) (fill (type none))
        )
      )
      (symbol "TRRS_1_1"
        (pin input line (at -8.89 2.54 0) (length 5.08)
          (name "SLEEVE" (effects (font (size 1.27 1.27))))
          (number "1" (effects (font (size 1.27 1.27))))
        )
        (pin input line (at -8.89 10.16 0) (length 5.08)
          (name "TIP" (effects (font (size 1.27 1.27))))
          (number "2" (effects (font (size 1.27 1.27))))
        )
        (pin input line (at -8.89 7.62 0) (length 5.08)
          (name "RING1" (effects (font (size 1.27 1.27))))
          (number "3" (effects (font (size 1.27 1.27))))
        )
        (pin input line (at -8.89 5.08 0) (length 5.08)
          (name "RING2" (effects (font (size 1.27 1.27))))
          (number "4" (effects (font (size 1.27 1.27))))
        )
      )
    )
    (symbol "keyboard_parts:D" (pin_names (offset 1.016)) (in_bom yes) (on_board yes)
      (property "Reference" "D" (id 0) (at -3.81 -1.27 90)
        (effects (font (size 1.524 1.524)))
      )
      (property "Value" "D" (id 1) (at 3.81 -1.27 90)
        (effects (font (size 1.524 1.524)) hide)
      )
      (property "Footprint" "" (id 2) (at 0 0 0)
        (effects (font (size 1.524 1.524)))
      )
      (property "Datasheet" "" (id 3) (at 0 0 0)
        (effects (font (size 1.524 1.524)))
      )
      (symbol "D_0_1"
        (polyline
          (pts
            (xy -2.54 0)
            (xy 2.54 0)
          )
          (stroke (width 0)) (fill (type none))
        )
        (polyline
          (pts
            (xy 0 0)
            (xy -2.54 -2.54)
            (xy 2.54 -2.54)
            (xy 0 0)
          )
          (stroke (width 0)) (fill (type outline))
        )
      )
      (symbol "D_1_1"
        (pin passive line (at 0 1.27 270) (length 1.27)
          (name "~" (effects (font (size 1.524 1.524))))
          (number "1" (effects (font (size 1.524 1.524))))
        )
        (pin passive line (at 0 -3.81 90) (length 1.27)
          (name "~" (effects (font (size 1.524 1.524))))
          (number "2" (effects (font (size 1.524 1.524))))
        )
      )
    )
    (symbol "keyboard_parts:GND" (power) (pin_names (offset 0)) (in_bom yes) (on_board yes)
      (property "Reference" "#PWR" (id 0) (at 0 1.27 0)
        (effects (font (size 0.508 0.508)) hide)
      )
      (property "Value" "GND" (id 1) (at 0 -2.54 0)
        (effects (font (size 0.762 0.762)))
      )
      (property "Footprint" "" (id 2) (at 0 0 0)
        (effects (font (size 1.524 1.524)))
      )
      (property "Datasheet" "" (id 3) (at 0 0 0)
        (effects (font (size 1.524 1.524)))
      )
      (symbol "GND_0_0"
        (pin power_in line (at 0 0 90) (length 0) hide
          (name "+5V" (effects (font (size 0.508 0.508))))
          (number "1" (effects (font (size 0.254 0.254))))
        )
      )
      (symbol "GND_0_1"
        (polyline
          (pts
            (xy 0 -1.651)
            (xy 0.635 -1.016)
            (xy -0.635 -1.016)
            (xy 0 -1.651)
          )
          (stroke (width 0)) (fill (type none))
        )
      )
      (symbol "GND_1_1"
        (polyline
          (pts
            (xy 0 0)
            (xy 0 -1.016)
            (xy 0 -1.016)
          )
          (stroke (width 0)) (fill (type none))
        )
      )
    )
    (symbol "keyboard_parts:Jumper" (pin_names (offset 0.762) hide) (in_bom yes) (on_board yes)
      (property "Reference" "JP" (id 0) (at 0 2.54 0)
        (effects (font (size 1.27 1.27)))
      )
      (property "Value" "Jumper" (id 1) (at 0 -2.032 0)
        (effects (font (size 1.27 1.27)))
      )
      (property "Footprint" "" (id 2) (at 0 0 0)
        (effects (font (size 1.27 1.27)) hide)
      )
      (property "Datasheet" "" (id 3) (at 0 0 0)
        (effects (font (size 1.27 1.27)) hide)
      )
      (symbol "Jumper_0_1"
        (circle (center -2.54 0) (radius 0.889) (stroke (width 0)) (fill (type none)))
        (circle (center 2.54 0) (radius 0.889) (stroke (width 0)) (fill (type none)))
        (pin passive line (at -7.62 0 0) (length 4.191)
          (name "1" (effects (font (size 1.27 1.27))))
          (number "1" (effects (font (size 1.27 1.27))))
        )
        (pin passive line (at 7.62 0 180) (length 4.191)
          (name "2" (effects (font (size 1.27 1.27))))
          (number "2" (effects (font (size 1.27 1.27))))
        )
      )
    )
    (symbol "keyboard_parts:KEYSW" (pin_names (offset 1.016)) (in_bom yes) (on_board yes)
      (property "Reference" "K?" (id 0) (at -1.27 0 0)
        (effects (font (size 1.524 1.524)))
      )
      (property "Value" "KEYSW" (id 1) (at 0 -2.54 0)
        (effects (font (size 1.524 1.524)) hide)
      )
      (property "Footprint" "" (id 2) (at 0 0 0)
        (effects (font (size 1.524 1.524)))
      )
      (property "Datasheet" "" (id 3) (at 0 0 0)
        (effects (font (size 1.524 1.524)))
      )
      (symbol "KEYSW_0_1"
        (circle (center -5.08 0) (radius 1.27) (stroke (width 0)) (fill (type none)))
        (circle (center 5.08 0) (radius 1.27) (stroke (width 0)) (fill (type none)))
        (polyline
          (pts
            (xy -5.08 1.27)
            (xy 3.81 3.81)
          )
          (stroke (width 0.254)) (fill (type none))
        )
      )
      (symbol "KEYSW_1_1"
        (pin passive line (at 7.62 0 180) (length 1.27)
          (name "~" (effects (font (size 1.524 1.524))))
          (number "1" (effects (font (size 1.524 1.524))))
        )
        (pin passive line (at -7.62 0 0) (length 1.27)
          (name "~" (effects (font (size 1.524 1.524))))
          (number "2" (effects (font (size 1.524 1.524))))
        )
      )
    )
    (symbol "keyboard_parts:R" (pin_numbers hide) (pin_names (offset 0)) (in_bom yes) (on_board yes)
      (property "Reference" "R" (id 0) (at 2.032 0 90)
        (effects (font (size 1.27 1.27)))
      )
      (property "Value" "R" (id 1) (at 0 0 90)
        (effects (font (size 1.27 1.27)))
      )
      (property "Footprint" "" (id 2) (at 0 0 0)
        (effects (font (size 1.524 1.524)))
      )
      (property "Datasheet" "" (id 3) (at 0 0 0)
        (effects (font (size 1.524 1.524)))
      )
      (property "ki_fp_filters" "R? SM0603 SM0805 R?-* SM1206" (id 4) (at 0 0 0)
        (effects (font (size 1.27 1.27)) hide)
      )
      (symbol "R_0_1"
        (rectangle (start -1.016 3.81) (end 1.016 -3.81)
          (stroke (width 0.3048)) (fill (type none))
        )
      )
      (symbol "R_1_1"
        (pin passive line (at 0 6.35 270) (length 2.54)
          (name "~" (effects (font (size 1.524 1.524))))
          (number "1" (effects (font (size 1.524 1.524))))
        )
        (pin passive line (at 0 -6.35 90) (length 2.54)
          (name "~" (effects (font (size 1.524 1.524))))
          (number "2" (effects (font (size 1.524 1.524))))
        )
      )
    )
  )

  (junction (at 54.61 87.63) (diameter 0.9144) (color 0 0 0 0))
  (junction (at 54.61 104.14) (diameter 0.9144) (color 0 0 0 0))
  (junction (at 63.5 85.09) (diameter 0.9144) (color 0 0 0 0))
  (junction (at 63.5 104.14) (diameter 0.9144) (color 0 0 0 0))
  (junction (at 88.9 43.18) (diameter 0.9144) (color 0 0 0 0))
  (junction (at 88.9 63.5) (diameter 0.9144) (color 0 0 0 0))
  (junction (at 88.9 83.82) (diameter 0.9144) (color 0 0 0 0))
  (junction (at 88.9 104.14) (diameter 0.9144) (color 0 0 0 0))
  (junction (at 106.68 33.02) (diameter 0.9144) (color 0 0 0 0))
  (junction (at 106.68 53.34) (diameter 0.9144) (color 0 0 0 0))
  (junction (at 106.68 73.66) (diameter 0.9144) (color 0 0 0 0))
  (junction (at 110.49 43.18) (diameter 0.9144) (color 0 0 0 0))
  (junction (at 110.49 63.5) (diameter 0.9144) (color 0 0 0 0))
  (junction (at 110.49 83.82) (diameter 0.9144) (color 0 0 0 0))
  (junction (at 128.27 33.02) (diameter 0.9144) (color 0 0 0 0))
  (junction (at 128.27 53.34) (diameter 0.9144) (color 0 0 0 0))
  (junction (at 128.27 73.66) (diameter 0.9144) (color 0 0 0 0))
  (junction (at 132.08 43.18) (diameter 0.9144) (color 0 0 0 0))
  (junction (at 132.08 63.5) (diameter 0.9144) (color 0 0 0 0))
  (junction (at 132.08 83.82) (diameter 0.9144) (color 0 0 0 0))
  (junction (at 149.86 33.02) (diameter 0.9144) (color 0 0 0 0))
  (junction (at 149.86 53.34) (diameter 0.9144) (color 0 0 0 0))
  (junction (at 153.67 43.18) (diameter 0.9144) (color 0 0 0 0))
  (junction (at 153.67 63.5) (diameter 0.9144) (color 0 0 0 0))
  (junction (at 153.67 83.82) (diameter 0.9144) (color 0 0 0 0))
  (junction (at 171.45 33.02) (diameter 0.9144) (color 0 0 0 0))
  (junction (at 171.45 53.34) (diameter 0.9144) (color 0 0 0 0))
  (junction (at 193.04 33.02) (diameter 0.9144) (color 0 0 0 0))
  (junction (at 193.04 53.34) (diameter 0.9144) (color 0 0 0 0))

  (wire (pts (xy 26.67 40.64) (xy 31.75 40.64))
    (stroke (width 0) (type solid) (color 0 0 0 0))
    (uuid 1e776d19-5531-41ff-a6de-241afd981102)
  )
  (wire (pts (xy 26.67 43.18) (xy 31.75 43.18))
    (stroke (width 0) (type solid) (color 0 0 0 0))
    (uuid 2eb6875e-7e63-45bc-8073-f41bbe85d892)
  )
  (wire (pts (xy 41.91 97.79) (xy 50.8 97.79))
    (stroke (width 0) (type solid) (color 0 0 0 0))
    (uuid 4f43a2bd-46cf-4b23-a089-176d8a490e02)
  )
  (wire (pts (xy 41.91 100.33) (xy 50.8 100.33))
    (stroke (width 0) (type solid) (color 0 0 0 0))
    (uuid 0845c16e-1a29-49e0-8371-49c06c8b845a)
  )
  (wire (pts (xy 48.26 85.09) (xy 48.26 95.25))
    (stroke (width 0) (type solid) (color 0 0 0 0))
    (uuid fcfda0f6-2eba-437b-9f79-56d74d41f854)
  )
  (wire (pts (xy 48.26 85.09) (xy 63.5 85.09))
    (stroke (width 0) (type solid) (color 0 0 0 0))
    (uuid a7d3e03d-7e7e-4df5-beef-09e6183d67a8)
  )
  (wire (pts (xy 48.26 95.25) (xy 41.91 95.25))
    (stroke (width 0) (type solid) (color 0 0 0 0))
    (uuid a7d3e03d-7e7e-4df5-beef-09e6183d67a8)
  )
  (wire (pts (xy 50.8 87.63) (xy 54.61 87.63))
    (stroke (width 0) (type solid) (color 0 0 0 0))
    (uuid 09bf5435-5f73-499e-bb5c-bb6a6da493d2)
  )
  (wire (pts (xy 50.8 97.79) (xy 50.8 87.63))
    (stroke (width 0) (type solid) (color 0 0 0 0))
    (uuid 09bf5435-5f73-499e-bb5c-bb6a6da493d2)
  )
  (wire (pts (xy 50.8 100.33) (xy 50.8 104.14))
    (stroke (width 0) (type solid) (color 0 0 0 0))
    (uuid c191ee93-6672-414f-94a4-a575946d3a42)
  )
  (wire (pts (xy 50.8 104.14) (xy 54.61 104.14))
    (stroke (width 0) (type solid) (color 0 0 0 0))
    (uuid 9e4488a5-b185-48ec-a761-1d4b418b1a26)
  )
  (wire (pts (xy 54.61 87.63) (xy 54.61 88.9))
    (stroke (width 0) (type solid) (color 0 0 0 0))
    (uuid c8540371-1b77-40dd-8491-a5aa62ee14c2)
  )
  (wire (pts (xy 54.61 87.63) (xy 64.77 87.63))
    (stroke (width 0) (type solid) (color 0 0 0 0))
    (uuid 09bf5435-5f73-499e-bb5c-bb6a6da493d2)
  )
  (wire (pts (xy 54.61 101.6) (xy 54.61 104.14))
    (stroke (width 0) (type solid) (color 0 0 0 0))
    (uuid 9f88926a-ca95-4643-805f-18930aaa624c)
  )
  (wire (pts (xy 54.61 104.14) (xy 63.5 104.14))
    (stroke (width 0) (type solid) (color 0 0 0 0))
    (uuid 9e4488a5-b185-48ec-a761-1d4b418b1a26)
  )
  (wire (pts (xy 63.5 85.09) (xy 63.5 88.9))
    (stroke (width 0) (type solid) (color 0 0 0 0))
    (uuid 4c7cd795-9b05-400d-819f-070b95cafd98)
  )
  (wire (pts (xy 63.5 85.09) (xy 64.77 85.09))
    (stroke (width 0) (type solid) (color 0 0 0 0))
    (uuid a7d3e03d-7e7e-4df5-beef-09e6183d67a8)
  )
  (wire (pts (xy 63.5 101.6) (xy 63.5 104.14))
    (stroke (width 0) (type solid) (color 0 0 0 0))
    (uuid e7007d42-3cec-4a50-91db-6103a8a7d1d6)
  )
  (wire (pts (xy 63.5 104.14) (xy 66.04 104.14))
    (stroke (width 0) (type solid) (color 0 0 0 0))
    (uuid 9e4488a5-b185-48ec-a761-1d4b418b1a26)
  )
  (wire (pts (xy 72.39 38.1) (xy 67.31 38.1))
    (stroke (width 0) (type solid) (color 0 0 0 0))
    (uuid b45d42e2-73df-4b66-89e8-bc957a05fff2)
  )
  (wire (pts (xy 86.36 43.18) (xy 88.9 43.18))
    (stroke (width 0) (type solid) (color 0 0 0 0))
    (uuid 844bdf81-69a8-418b-a892-acfcf9f9e8c5)
  )
  (wire (pts (xy 86.36 63.5) (xy 88.9 63.5))
    (stroke (width 0) (type solid) (color 0 0 0 0))
    (uuid 3ee28feb-8e17-4041-89a3-19d33ee0ae8d)
  )
  (wire (pts (xy 86.36 83.82) (xy 88.9 83.82))
    (stroke (width 0) (type solid) (color 0 0 0 0))
    (uuid 78afb68c-db0a-4d71-9a8b-c7abcd07cdf4)
  )
  (wire (pts (xy 86.36 104.14) (xy 88.9 104.14))
    (stroke (width 0) (type solid) (color 0 0 0 0))
    (uuid 1d4157d0-9924-40fe-bdea-613693f42abc)
  )
  (wire (pts (xy 88.9 33.02) (xy 88.9 35.56))
    (stroke (width 0) (type solid) (color 0 0 0 0))
    (uuid 8406f7f8-3274-4f8a-9f60-46326651013c)
  )
  (wire (pts (xy 88.9 33.02) (xy 91.44 33.02))
    (stroke (width 0) (type solid) (color 0 0 0 0))
    (uuid 708a473a-8988-4bd3-b41e-8e30ea3ec470)
  )
  (wire (pts (xy 88.9 40.64) (xy 88.9 43.18))
    (stroke (width 0) (type solid) (color 0 0 0 0))
    (uuid 80f3a399-334e-4eb0-b38a-95726bb7448f)
  )
  (wire (pts (xy 88.9 43.18) (xy 110.49 43.18))
    (stroke (width 0) (type solid) (color 0 0 0 0))
    (uuid b7892aad-c3d0-4b12-ac52-e5d772cea885)
  )
  (wire (pts (xy 88.9 53.34) (xy 88.9 55.88))
    (stroke (width 0) (type solid) (color 0 0 0 0))
    (uuid 6ce8ac74-88db-4e9a-9f2c-d312a6e61bf1)
  )
  (wire (pts (xy 88.9 53.34) (xy 91.44 53.34))
    (stroke (width 0) (type solid) (color 0 0 0 0))
    (uuid fb69fc18-2cb1-4363-bd00-e1a5fae176fe)
  )
  (wire (pts (xy 88.9 63.5) (xy 88.9 60.96))
    (stroke (width 0) (type solid) (color 0 0 0 0))
    (uuid 7c6c392d-b330-4b06-bf4a-6d00af2789b1)
  )
  (wire (pts (xy 88.9 63.5) (xy 110.49 63.5))
    (stroke (width 0) (type solid) (color 0 0 0 0))
    (uuid 65640010-ac31-487a-a6f8-cbb5d69c1314)
  )
  (wire (pts (xy 88.9 73.66) (xy 88.9 76.2))
    (stroke (width 0) (type solid) (color 0 0 0 0))
    (uuid 6e2b65c0-fc36-4184-9bbd-f2995e7e27e5)
  )
  (wire (pts (xy 88.9 73.66) (xy 91.44 73.66))
    (stroke (width 0) (type solid) (color 0 0 0 0))
    (uuid e4b50034-4e2b-4c1f-8191-6dee85aab6e4)
  )
  (wire (pts (xy 88.9 83.82) (xy 88.9 81.28))
    (stroke (width 0) (type solid) (color 0 0 0 0))
    (uuid 90b77d46-9fe5-4a6e-9cbc-540b31a3ceab)
  )
  (wire (pts (xy 88.9 83.82) (xy 110.49 83.82))
    (stroke (width 0) (type solid) (color 0 0 0 0))
    (uuid 3479028a-f9a0-4077-922e-fdb69381c518)
  )
  (wire (pts (xy 88.9 93.98) (xy 88.9 96.52))
    (stroke (width 0) (type solid) (color 0 0 0 0))
    (uuid a059504f-7fdd-4bd0-91b3-f152a5263814)
  )
  (wire (pts (xy 88.9 93.98) (xy 91.44 93.98))
    (stroke (width 0) (type solid) (color 0 0 0 0))
    (uuid 1dc10b85-9aa4-4b9c-b853-edc63b5c2f31)
  )
  (wire (pts (xy 88.9 104.14) (xy 88.9 101.6))
    (stroke (width 0) (type solid) (color 0 0 0 0))
    (uuid 8b926076-2b74-4464-8648-b20fd6a37b04)
  )
  (wire (pts (xy 88.9 104.14) (xy 110.49 104.14))
    (stroke (width 0) (type solid) (color 0 0 0 0))
    (uuid ef07d298-adc8-486d-8315-2f7d2048cdb0)
  )
  (wire (pts (xy 106.68 30.48) (xy 106.68 33.02))
    (stroke (width 0) (type solid) (color 0 0 0 0))
    (uuid aff9b3b4-8ebe-4dfb-98dd-25f39eac8251)
  )
  (wire (pts (xy 106.68 33.02) (xy 106.68 53.34))
    (stroke (width 0) (type solid) (color 0 0 0 0))
    (uuid aff9b3b4-8ebe-4dfb-98dd-25f39eac8251)
  )
  (wire (pts (xy 106.68 53.34) (xy 106.68 73.66))
    (stroke (width 0) (type solid) (color 0 0 0 0))
    (uuid 327f0015-8d38-44c3-aec9-d87ff6bf2190)
  )
  (wire (pts (xy 106.68 73.66) (xy 106.68 93.98))
    (stroke (width 0) (type solid) (color 0 0 0 0))
    (uuid 327f0015-8d38-44c3-aec9-d87ff6bf2190)
  )
  (wire (pts (xy 110.49 33.02) (xy 110.49 35.56))
    (stroke (width 0) (type solid) (color 0 0 0 0))
    (uuid 0c63f3bb-c880-462a-bdb5-a373db5ff5ae)
  )
  (wire (pts (xy 110.49 33.02) (xy 113.03 33.02))
    (stroke (width 0) (type solid) (color 0 0 0 0))
    (uuid c21cfb89-97c9-4863-ab7d-5d58fe3e25ff)
  )
  (wire (pts (xy 110.49 40.64) (xy 110.49 43.18))
    (stroke (width 0) (type solid) (color 0 0 0 0))
    (uuid aeb7633a-87e4-47d4-b2ad-3bbd8f0bac0a)
  )
  (wire (pts (xy 110.49 43.18) (xy 132.08 43.18))
    (stroke (width 0) (type solid) (color 0 0 0 0))
    (uuid b7892aad-c3d0-4b12-ac52-e5d772cea885)
  )
  (wire (pts (xy 110.49 53.34) (xy 110.49 55.88))
    (stroke (width 0) (type solid) (color 0 0 0 0))
    (uuid 22f0e20a-461c-4d89-995d-21652ab59484)
  )
  (wire (pts (xy 110.49 53.34) (xy 113.03 53.34))
    (stroke (width 0) (type solid) (color 0 0 0 0))
    (uuid 1f50dfa0-0568-42b4-9325-41e4a64d9e87)
  )
  (wire (pts (xy 110.49 63.5) (xy 110.49 60.96))
    (stroke (width 0) (type solid) (color 0 0 0 0))
    (uuid 40024e5b-d115-4149-9920-8504de106db4)
  )
  (wire (pts (xy 110.49 63.5) (xy 132.08 63.5))
    (stroke (width 0) (type solid) (color 0 0 0 0))
    (uuid 65640010-ac31-487a-a6f8-cbb5d69c1314)
  )
  (wire (pts (xy 110.49 73.66) (xy 110.49 76.2))
    (stroke (width 0) (type solid) (color 0 0 0 0))
    (uuid 68a1c561-ea4f-4cf6-a256-853adf07023a)
  )
  (wire (pts (xy 110.49 73.66) (xy 113.03 73.66))
    (stroke (width 0) (type solid) (color 0 0 0 0))
    (uuid d6d4fd97-22c2-4bb7-a896-51de839e97a1)
  )
  (wire (pts (xy 110.49 83.82) (xy 110.49 81.28))
    (stroke (width 0) (type solid) (color 0 0 0 0))
    (uuid aefc7f3a-37a1-4df3-9222-0866a438d189)
  )
  (wire (pts (xy 110.49 83.82) (xy 132.08 83.82))
    (stroke (width 0) (type solid) (color 0 0 0 0))
    (uuid 3479028a-f9a0-4077-922e-fdb69381c518)
  )
  (wire (pts (xy 110.49 93.98) (xy 110.49 96.52))
    (stroke (width 0) (type solid) (color 0 0 0 0))
    (uuid f9a3fc0f-643c-48cf-a75e-dbfb49f196d3)
  )
  (wire (pts (xy 110.49 93.98) (xy 113.03 93.98))
    (stroke (width 0) (type solid) (color 0 0 0 0))
    (uuid 2ac92c20-fcc2-4de2-b921-66776b35cca4)
  )
  (wire (pts (xy 110.49 104.14) (xy 110.49 101.6))
    (stroke (width 0) (type solid) (color 0 0 0 0))
    (uuid 139ed800-10f6-4112-8aca-2f7ed7ca477a)
  )
  (wire (pts (xy 128.27 30.48) (xy 128.27 33.02))
    (stroke (width 0) (type solid) (color 0 0 0 0))
    (uuid 30a14176-c10b-4236-bd4b-2c65086490d6)
  )
  (wire (pts (xy 128.27 33.02) (xy 128.27 53.34))
    (stroke (width 0) (type solid) (color 0 0 0 0))
    (uuid d04d2617-555f-4fb6-b1f8-88ac2a560e84)
  )
  (wire (pts (xy 128.27 53.34) (xy 128.27 73.66))
    (stroke (width 0) (type solid) (color 0 0 0 0))
    (uuid d04d2617-555f-4fb6-b1f8-88ac2a560e84)
  )
  (wire (pts (xy 128.27 73.66) (xy 128.27 93.98))
    (stroke (width 0) (type solid) (color 0 0 0 0))
    (uuid d04d2617-555f-4fb6-b1f8-88ac2a560e84)
  )
  (wire (pts (xy 132.08 33.02) (xy 132.08 35.56))
    (stroke (width 0) (type solid) (color 0 0 0 0))
    (uuid 498b9205-0719-4613-a82e-a09c600281f3)
  )
  (wire (pts (xy 132.08 33.02) (xy 134.62 33.02))
    (stroke (width 0) (type solid) (color 0 0 0 0))
    (uuid 2c51efcb-19bd-434a-afb6-ca189a19e1ef)
  )
  (wire (pts (xy 132.08 40.64) (xy 132.08 43.18))
    (stroke (width 0) (type solid) (color 0 0 0 0))
    (uuid 4e6ab77e-4d9e-45e8-a7d5-cd4e527abdc9)
  )
  (wire (pts (xy 132.08 43.18) (xy 153.67 43.18))
    (stroke (width 0) (type solid) (color 0 0 0 0))
    (uuid b7892aad-c3d0-4b12-ac52-e5d772cea885)
  )
  (wire (pts (xy 132.08 53.34) (xy 132.08 55.88))
    (stroke (width 0) (type solid) (color 0 0 0 0))
    (uuid 29aca070-9d9c-4a61-9535-189ba767e89a)
  )
  (wire (pts (xy 132.08 53.34) (xy 134.62 53.34))
    (stroke (width 0) (type solid) (color 0 0 0 0))
    (uuid 6076a9c0-76de-47e3-8e3f-be9c95d997a6)
  )
  (wire (pts (xy 132.08 63.5) (xy 132.08 60.96))
    (stroke (width 0) (type solid) (color 0 0 0 0))
    (uuid 32f98e1b-8adf-4aac-bd23-fecf0864d5a1)
  )
  (wire (pts (xy 132.08 63.5) (xy 153.67 63.5))
    (stroke (width 0) (type solid) (color 0 0 0 0))
    (uuid 65640010-ac31-487a-a6f8-cbb5d69c1314)
  )
  (wire (pts (xy 132.08 73.66) (xy 132.08 76.2))
    (stroke (width 0) (type solid) (color 0 0 0 0))
    (uuid 8d24b904-63cf-4e5a-a68d-7d3a75d43b9c)
  )
  (wire (pts (xy 132.08 73.66) (xy 134.62 73.66))
    (stroke (width 0) (type solid) (color 0 0 0 0))
    (uuid 1941f5fb-7b55-4f68-aa13-fa41b577cb46)
  )
  (wire (pts (xy 132.08 83.82) (xy 132.08 81.28))
    (stroke (width 0) (type solid) (color 0 0 0 0))
    (uuid 87f599d9-b223-4946-bd4a-902e5a3d6ac7)
  )
  (wire (pts (xy 132.08 83.82) (xy 153.67 83.82))
    (stroke (width 0) (type solid) (color 0 0 0 0))
    (uuid 3479028a-f9a0-4077-922e-fdb69381c518)
  )
  (wire (pts (xy 149.86 30.48) (xy 149.86 33.02))
    (stroke (width 0) (type solid) (color 0 0 0 0))
    (uuid 79f26ec1-c909-47b4-9225-4772e917f68a)
  )
  (wire (pts (xy 149.86 33.02) (xy 149.86 53.34))
    (stroke (width 0) (type solid) (color 0 0 0 0))
    (uuid d254bec6-75ba-409a-b83e-c89b0ccb985c)
  )
  (wire (pts (xy 149.86 53.34) (xy 149.86 73.66))
    (stroke (width 0) (type solid) (color 0 0 0 0))
    (uuid d254bec6-75ba-409a-b83e-c89b0ccb985c)
  )
  (wire (pts (xy 153.67 33.02) (xy 153.67 35.56))
    (stroke (width 0) (type solid) (color 0 0 0 0))
    (uuid 7cbeac4c-11ba-4049-96aa-092444b88bce)
  )
  (wire (pts (xy 153.67 33.02) (xy 156.21 33.02))
    (stroke (width 0) (type solid) (color 0 0 0 0))
    (uuid 18c3b256-ff2a-46f0-8850-e8f85d9f5ae1)
  )
  (wire (pts (xy 153.67 40.64) (xy 153.67 43.18))
    (stroke (width 0) (type solid) (color 0 0 0 0))
    (uuid e4f68a0a-8632-4c11-b97f-3bfdbcbd4bbe)
  )
  (wire (pts (xy 153.67 43.18) (xy 175.26 43.18))
    (stroke (width 0) (type solid) (color 0 0 0 0))
    (uuid b7892aad-c3d0-4b12-ac52-e5d772cea885)
  )
  (wire (pts (xy 153.67 53.34) (xy 153.67 55.88))
    (stroke (width 0) (type solid) (color 0 0 0 0))
    (uuid fe1fb255-a33f-47f9-976d-86792d87cf67)
  )
  (wire (pts (xy 153.67 53.34) (xy 156.21 53.34))
    (stroke (width 0) (type solid) (color 0 0 0 0))
    (uuid fc2e92c4-691b-423c-875f-2378acedf292)
  )
  (wire (pts (xy 153.67 63.5) (xy 153.67 60.96))
    (stroke (width 0) (type solid) (color 0 0 0 0))
    (uuid e3c8757f-694e-4928-89dc-3d9b939c2734)
  )
  (wire (pts (xy 153.67 63.5) (xy 175.26 63.5))
    (stroke (width 0) (type solid) (color 0 0 0 0))
    (uuid 65640010-ac31-487a-a6f8-cbb5d69c1314)
  )
  (wire (pts (xy 153.67 73.66) (xy 153.67 76.2))
    (stroke (width 0) (type solid) (color 0 0 0 0))
    (uuid 52c1bb10-9014-469e-a44f-4e52d521e0fe)
  )
  (wire (pts (xy 153.67 73.66) (xy 156.21 73.66))
    (stroke (width 0) (type solid) (color 0 0 0 0))
    (uuid aa81900d-41cd-4496-927e-7af8ab0f8ed8)
  )
  (wire (pts (xy 153.67 83.82) (xy 153.67 81.28))
    (stroke (width 0) (type solid) (color 0 0 0 0))
    (uuid 0d932ab2-7859-4e02-9df3-1a91e6f80fa3)
  )
  (wire (pts (xy 153.67 83.82) (xy 175.26 83.82))
    (stroke (width 0) (type solid) (color 0 0 0 0))
    (uuid 3479028a-f9a0-4077-922e-fdb69381c518)
  )
  (wire (pts (xy 171.45 30.48) (xy 171.45 33.02))
    (stroke (width 0) (type solid) (color 0 0 0 0))
    (uuid 1ef6c472-9d80-422b-98db-c83489e2c0c7)
  )
  (wire (pts (xy 171.45 33.02) (xy 171.45 53.34))
    (stroke (width 0) (type solid) (color 0 0 0 0))
    (uuid 089fb3da-c13d-4ca3-b545-5074f32d0777)
  )
  (wire (pts (xy 171.45 53.34) (xy 171.45 73.66))
    (stroke (width 0) (type solid) (color 0 0 0 0))
    (uuid 089fb3da-c13d-4ca3-b545-5074f32d0777)
  )
  (wire (pts (xy 175.26 33.02) (xy 175.26 35.56))
    (stroke (width 0) (type solid) (color 0 0 0 0))
    (uuid 0d8de4ea-d7eb-4704-bdf9-ac9baf35033b)
  )
  (wire (pts (xy 175.26 33.02) (xy 177.8 33.02))
    (stroke (width 0) (type solid) (color 0 0 0 0))
    (uuid ab391707-1c52-4346-b6b7-11c6526f9187)
  )
  (wire (pts (xy 175.26 43.18) (xy 175.26 40.64))
    (stroke (width 0) (type solid) (color 0 0 0 0))
    (uuid 8a166056-6f3d-4924-9119-590f80026c51)
  )
  (wire (pts (xy 175.26 53.34) (xy 175.26 55.88))
    (stroke (width 0) (type solid) (color 0 0 0 0))
    (uuid 42114425-8aeb-41f8-9faf-67cb3d9363ea)
  )
  (wire (pts (xy 175.26 53.34) (xy 177.8 53.34))
    (stroke (width 0) (type solid) (color 0 0 0 0))
    (uuid 71c3b890-82f8-4689-8abd-bde3cc44ba28)
  )
  (wire (pts (xy 175.26 63.5) (xy 175.26 60.96))
    (stroke (width 0) (type solid) (color 0 0 0 0))
    (uuid ca4cbbe3-b0b9-4d0f-a31e-76772bc4746d)
  )
  (wire (pts (xy 175.26 73.66) (xy 175.26 76.2))
    (stroke (width 0) (type solid) (color 0 0 0 0))
    (uuid 1fd12544-d83b-44c4-8472-314b8cda6904)
  )
  (wire (pts (xy 175.26 73.66) (xy 177.8 73.66))
    (stroke (width 0) (type solid) (color 0 0 0 0))
    (uuid 9900a075-3363-46ea-b426-45da4cba7ffc)
  )
  (wire (pts (xy 175.26 83.82) (xy 175.26 81.28))
    (stroke (width 0) (type solid) (color 0 0 0 0))
    (uuid 6554c9f6-56f4-4d10-9627-6dfa5f99b517)
  )
  (wire (pts (xy 193.04 30.48) (xy 193.04 33.02))
    (stroke (width 0) (type solid) (color 0 0 0 0))
    (uuid 2a02e059-c990-44bf-9b74-9bbfc3ca5b40)
  )
  (wire (pts (xy 193.04 33.02) (xy 193.04 53.34))
    (stroke (width 0) (type solid) (color 0 0 0 0))
    (uuid a4d75c5d-4f79-4a64-9e05-8af154cccb26)
  )
  (wire (pts (xy 193.04 53.34) (xy 193.04 73.66))
    (stroke (width 0) (type solid) (color 0 0 0 0))
    (uuid a4d75c5d-4f79-4a64-9e05-8af154cccb26)
  )

  (label "data1" (at 31.75 45.72 180)
    (effects (font (size 1.27 1.27)) (justify right bottom))
    (uuid 3f261d6e-3d97-4106-930e-cb23d5ed8e2b)
  )
  (label "data0" (at 31.75 48.26 180)
    (effects (font (size 1.27 1.27)) (justify right bottom))
    (uuid 5bb449c8-0dd9-48ee-a834-342f7b9ea768)
  )
  (label "row0" (at 31.75 55.88 180)
    (effects (font (size 1.27 1.27)) (justify right bottom))
    (uuid d21a0149-f250-475b-9c6f-c1ef89164d23)
  )
  (label "row1" (at 31.75 58.42 180)
    (effects (font (size 1.27 1.27)) (justify right bottom))
    (uuid 9d67bab3-e910-4b30-b12c-6e389a67c15f)
  )
  (label "row2" (at 31.75 60.96 180)
    (effects (font (size 1.27 1.27)) (justify right bottom))
    (uuid 08afc167-0376-448e-8bb6-d17d0758253a)
  )
  (label "row3" (at 31.75 63.5 180)
    (effects (font (size 1.27 1.27)) (justify right bottom))
    (uuid 3cbaa171-8175-4327-88e0-2b54e23362de)
  )
  (label "reset" (at 33.02 78.74 180)
    (effects (font (size 1.27 1.27)) (justify right bottom))
    (uuid dd14145d-1d28-45a5-920a-238fc1eb786b)
  )
  (label "data1" (at 64.77 85.09 0)
    (effects (font (size 1.27 1.27)) (justify left bottom))
    (uuid d5f50948-e933-4590-aa80-1dd8a73435f5)
  )
  (label "data0" (at 64.77 87.63 0)
    (effects (font (size 1.27 1.27)) (justify left bottom))
    (uuid 3768a51c-819a-4208-8076-7664e1d405d7)
  )
  (label "vcc" (at 66.04 104.14 0)
    (effects (font (size 1.27 1.27)) (justify left bottom))
    (uuid 98f4e28b-73b4-4c00-9af1-9587a416bc42)
  )
  (label "reset" (at 67.31 40.64 0)
    (effects (font (size 1.27 1.27)) (justify left bottom))
    (uuid be28c940-3eee-46ac-8321-624f538e49f0)
  )
  (label "vcc" (at 67.31 43.18 0)
    (effects (font (size 1.27 1.27)) (justify left bottom))
    (uuid 07d6abf0-b90d-4ff3-a2c5-79af111356cf)
  )
  (label "col0" (at 67.31 53.34 0)
    (effects (font (size 1.27 1.27)) (justify left bottom))
    (uuid 90ffd5ff-3271-4f49-bdc4-7d17c7bbc528)
  )
  (label "col1" (at 67.31 55.88 0)
    (effects (font (size 1.27 1.27)) (justify left bottom))
    (uuid 804dfc83-47f6-4b2b-87c2-eddc019f92c7)
  )
  (label "col2" (at 67.31 58.42 0)
    (effects (font (size 1.27 1.27)) (justify left bottom))
    (uuid 9ad375c7-61c8-4713-b9bd-854b212a9cdf)
  )
  (label "col3" (at 67.31 60.96 0)
    (effects (font (size 1.27 1.27)) (justify left bottom))
    (uuid 74c98254-118a-490b-8d1b-86781699eda7)
  )
  (label "col4" (at 67.31 63.5 0)
    (effects (font (size 1.27 1.27)) (justify left bottom))
    (uuid bb4ef801-d5cd-40be-8661-e4a2c9797edf)
  )
  (label "row0" (at 86.36 43.18 180)
    (effects (font (size 1.27 1.27)) (justify right bottom))
    (uuid 3ea39725-f6e5-4aca-acbd-6c3ba20a637b)
  )
  (label "row1" (at 86.36 63.5 180)
    (effects (font (size 1.27 1.27)) (justify right bottom))
    (uuid e40a0b7c-59b0-432b-a667-2fbf6ba5520e)
  )
  (label "row2" (at 86.36 83.82 180)
    (effects (font (size 1.27 1.27)) (justify right bottom))
    (uuid 5dc2d4c8-9c3f-4a49-8c23-836caa8de2c7)
  )
  (label "row3" (at 86.36 104.14 180)
    (effects (font (size 1.27 1.27)) (justify right bottom))
    (uuid 7a99fcf9-355d-4fd7-846b-e2c0fe41858a)
  )
  (label "col0" (at 106.68 30.48 0)
    (effects (font (size 1.27 1.27)) (justify left bottom))
    (uuid 626530fb-abc1-4840-b296-5a13e379d628)
  )
  (label "col1" (at 128.27 30.48 0)
    (effects (font (size 1.27 1.27)) (justify left bottom))
    (uuid 7a3f9d20-178e-44af-a543-279ee943c8f3)
  )
  (label "col2" (at 149.86 30.48 0)
    (effects (font (size 1.27 1.27)) (justify left bottom))
    (uuid f149e73a-ef53-4162-9d01-50c3f5d53052)
  )
  (label "col3" (at 171.45 30.48 0)
    (effects (font (size 1.27 1.27)) (justify left bottom))
    (uuid 90d553f9-c760-45ba-800f-5ffe049f9750)
  )
  (label "col4" (at 193.04 30.48 0)
    (effects (font (size 1.27 1.27)) (justify left bottom))
    (uuid b08ea1c5-98d9-41e4-96b1-b52a93c4112d)
  )

  (symbol (lib_id "keyboard_parts:GND") (at 26.67 40.64 270) (mirror x) (unit 1)
    (in_bom yes) (on_board yes) (fields_autoplaced)
    (uuid 4ced37de-5754-4f18-9a34-ca39b8469636)
    (property "Reference" "#PWR02" (id 0) (at 27.94 40.64 0)
      (effects (font (size 0.508 0.508)) hide)
    )
    (property "Value" "GND" (id 1) (at 27.94 41.275 90)
      (effects (font (size 0.762 0.762)) (justify left))
    )
    (property "Footprint" "" (id 2) (at 26.67 40.64 0)
      (effects (font (size 1.524 1.524)))
    )
    (property "Datasheet" "" (id 3) (at 26.67 40.64 0)
      (effects (font (size 1.524 1.524)))
    )
    (pin "1" (uuid 7e8162fa-4774-4246-a32d-ff22d586dee5))
  )

  (symbol (lib_id "keyboard_parts:GND") (at 26.67 43.18 270) (mirror x) (unit 1)
    (in_bom yes) (on_board yes) (fields_autoplaced)
    (uuid 816cbbf1-dad6-4c12-a0de-ec9b46028b37)
    (property "Reference" "#PWR03" (id 0) (at 27.94 43.18 0)
      (effects (font (size 0.508 0.508)) hide)
    )
    (property "Value" "GND" (id 1) (at 27.94 43.815 90)
      (effects (font (size 0.762 0.762)) (justify left))
    )
    (property "Footprint" "" (id 2) (at 26.67 43.18 0)
      (effects (font (size 1.524 1.524)))
    )
    (property "Datasheet" "" (id 3) (at 26.67 43.18 0)
      (effects (font (size 1.524 1.524)))
    )
    (pin "1" (uuid 07e23070-b862-48ce-b0b8-2725e8068c1b))
  )

  (symbol (lib_id "keyboard_parts:GND") (at 41.91 92.71 90) (unit 1)
    (in_bom yes) (on_board yes) (fields_autoplaced)
    (uuid e46a1270-de83-4349-a81e-fd3bb905afe2)
    (property "Reference" "#PWR05" (id 0) (at 40.64 92.71 0)
      (effects (font (size 0.508 0.508)) hide)
    )
    (property "Value" "GND" (id 1) (at 44.45 93.345 90)
      (effects (font (size 0.762 0.762)) (justify right))
    )
    (property "Footprint" "" (id 2) (at 41.91 92.71 0)
      (effects (font (size 1.524 1.524)))
    )
    (property "Datasheet" "" (id 3) (at 41.91 92.71 0)
      (effects (font (size 1.524 1.524)))
    )
    (pin "1" (uuid f3f7a663-ded5-4fab-91d8-8ddc1e1d15e0))
  )

  (symbol (lib_id "keyboard_parts:GND") (at 48.26 78.74 0) (unit 1)
    (in_bom yes) (on_board yes) (fields_autoplaced)
    (uuid ad18b79b-be99-455a-8101-7fe4cf733d3c)
    (property "Reference" "#PWR04" (id 0) (at 48.26 77.47 0)
      (effects (font (size 0.508 0.508)) hide)
    )
    (property "Value" "GND" (id 1) (at 48.26 77.47 0)
      (effects (font (size 0.762 0.762)))
    )
    (property "Footprint" "" (id 2) (at 48.26 78.74 0)
      (effects (font (size 1.524 1.524)))
    )
    (property "Datasheet" "" (id 3) (at 48.26 78.74 0)
      (effects (font (size 1.524 1.524)))
    )
    (pin "1" (uuid 47e00713-0162-4832-91bb-ff226b50cfe4))
  )

  (symbol (lib_id "keyboard_parts:GND") (at 72.39 38.1 90) (unit 1)
    (in_bom yes) (on_board yes) (fields_autoplaced)
    (uuid 2f23f9f5-9cff-471c-a43f-d14cf2b5b987)
    (property "Reference" "#PWR01" (id 0) (at 71.12 38.1 0)
      (effects (font (size 0.508 0.508)) hide)
    )
    (property "Value" "GND" (id 1) (at 74.93 38.735 90)
      (effects (font (size 0.762 0.762)) (justify right))
    )
    (property "Footprint" "" (id 2) (at 72.39 38.1 0)
      (effects (font (size 1.524 1.524)))
    )
    (property "Datasheet" "" (id 3) (at 72.39 38.1 0)
      (effects (font (size 1.524 1.524)))
    )
    (pin "1" (uuid 09e91da7-2fb0-440b-b175-833aa7c036e8))
  )

  (symbol (lib_id "keyboard_parts:Jumper") (at 40.64 78.74 0) (unit 1)
    (in_bom yes) (on_board yes) (fields_autoplaced)
    (uuid dbfd6c33-d601-4af4-9326-2f2b4fe3615f)
    (property "Reference" "SW1" (id 0) (at 40.64 74.93 0)
      (effects (font (size 1.27 1.27)) hide)
    )
    (property "Value" "SW_PUSH" (id 1) (at 40.64 74.93 0)
      (effects (font (size 1.27 1.27)) hide)
    )
    (property "Footprint" "random keyboard parts:Empty" (id 2) (at 40.64 78.74 0)
      (effects (font (size 1.27 1.27)) hide)
    )
    (property "Datasheet" "" (id 3) (at 40.64 78.74 0)
      (effects (font (size 1.27 1.27)) hide)
    )
    (pin "1" (uuid 630ae4f7-e6ab-43ff-840e-4289f484a44e))
    (pin "2" (uuid c5ac3301-a879-4dfc-9519-021b53efb72c))
  )

  (symbol (lib_id "keyboard_parts:D") (at 88.9 39.37 0) (mirror x) (unit 1)
    (in_bom yes) (on_board yes) (fields_autoplaced)
    (uuid b3adb5bf-d879-45f4-a5ee-d136e833e17d)
    (property "Reference" "D1" (id 0) (at 85.09 38.735 0)
      (effects (font (size 1.524 1.524)) (justify right))
    )
    (property "Value" "D" (id 1) (at 92.71 38.1 90)
      (effects (font (size 1.524 1.524)) hide)
    )
    (property "Footprint" "random keyboard parts:Empty" (id 2) (at 88.9 39.37 0)
      (effects (font (size 1.524 1.524)) hide)
    )
    (property "Datasheet" "" (id 3) (at 88.9 39.37 0)
      (effects (font (size 1.524 1.524)))
    )
    (pin "1" (uuid 237a6f7f-c9ca-4e55-bac5-f0619205963a))
    (pin "2" (uuid cf0d77ee-cc92-4650-b412-f5a7b0902d78))
  )

  (symbol (lib_id "keyboard_parts:D") (at 88.9 59.69 0) (mirror x) (unit 1)
    (in_bom yes) (on_board yes) (fields_autoplaced)
    (uuid 21aecf4d-236d-477a-9118-8f40ecd6d65c)
    (property "Reference" "D6" (id 0) (at 85.09 59.055 0)
      (effects (font (size 1.524 1.524)) (justify right))
    )
    (property "Value" "D" (id 1) (at 92.71 58.42 90)
      (effects (font (size 1.524 1.524)) hide)
    )
    (property "Footprint" "random keyboard parts:Empty" (id 2) (at 88.9 59.69 0)
      (effects (font (size 1.524 1.524)) hide)
    )
    (property "Datasheet" "" (id 3) (at 88.9 59.69 0)
      (effects (font (size 1.524 1.524)))
    )
    (pin "1" (uuid e3a437cc-6462-46d2-904c-0ca7dc264cfb))
    (pin "2" (uuid 38c3b2f6-6274-4df2-a397-f1d740acf42c))
  )

  (symbol (lib_id "keyboard_parts:D") (at 88.9 80.01 0) (mirror x) (unit 1)
    (in_bom yes) (on_board yes) (fields_autoplaced)
    (uuid 7d363c93-09f3-4970-984e-f219295c0651)
    (property "Reference" "D11" (id 0) (at 85.09 79.375 0)
      (effects (font (size 1.524 1.524)) (justify right))
    )
    (property "Value" "D" (id 1) (at 92.71 78.74 90)
      (effects (font (size 1.524 1.524)) hide)
    )
    (property "Footprint" "random keyboard parts:Empty" (id 2) (at 88.9 80.01 0)
      (effects (font (size 1.524 1.524)) hide)
    )
    (property "Datasheet" "" (id 3) (at 88.9 80.01 0)
      (effects (font (size 1.524 1.524)))
    )
    (pin "1" (uuid 300460c1-e07e-4849-9895-a342c7d171f0))
    (pin "2" (uuid a7cd9a93-9777-497d-a262-e66ff06ccab8))
  )

  (symbol (lib_id "keyboard_parts:D") (at 88.9 100.33 0) (mirror x) (unit 1)
    (in_bom yes) (on_board yes) (fields_autoplaced)
    (uuid eff90bac-aebc-4ce5-8103-c07ffccf89f5)
    (property "Reference" "D16" (id 0) (at 85.09 99.695 0)
      (effects (font (size 1.524 1.524)) (justify right))
    )
    (property "Value" "D" (id 1) (at 92.71 99.06 90)
      (effects (font (size 1.524 1.524)) hide)
    )
    (property "Footprint" "random keyboard parts:Empty" (id 2) (at 88.9 100.33 0)
      (effects (font (size 1.524 1.524)) hide)
    )
    (property "Datasheet" "" (id 3) (at 88.9 100.33 0)
      (effects (font (size 1.524 1.524)))
    )
    (pin "1" (uuid 040e9dd8-ea71-45a4-81bb-3e6c4bc516ce))
    (pin "2" (uuid 9258e753-5b6d-4171-be44-30ac28c38d13))
  )

  (symbol (lib_id "keyboard_parts:D") (at 110.49 39.37 0) (mirror x) (unit 1)
    (in_bom yes) (on_board yes) (fields_autoplaced)
    (uuid 9ca66732-1f4e-46ae-af17-b606358de06a)
    (property "Reference" "D2" (id 0) (at 106.68 38.735 0)
      (effects (font (size 1.524 1.524)) (justify right))
    )
    (property "Value" "D" (id 1) (at 114.3 38.1 90)
      (effects (font (size 1.524 1.524)) hide)
    )
    (property "Footprint" "random keyboard parts:Empty" (id 2) (at 110.49 39.37 0)
      (effects (font (size 1.524 1.524)) hide)
    )
    (property "Datasheet" "" (id 3) (at 110.49 39.37 0)
      (effects (font (size 1.524 1.524)))
    )
    (pin "1" (uuid a7bcf752-3e56-41ad-a2e6-10d9b5408422))
    (pin "2" (uuid e8be1e8f-367d-49bd-9881-c12ac8d2e9cb))
  )

  (symbol (lib_id "keyboard_parts:D") (at 110.49 59.69 0) (mirror x) (unit 1)
    (in_bom yes) (on_board yes) (fields_autoplaced)
    (uuid 9568fe1e-4884-4d3f-8141-2e4a907e0714)
    (property "Reference" "D7" (id 0) (at 106.68 59.055 0)
      (effects (font (size 1.524 1.524)) (justify right))
    )
    (property "Value" "D" (id 1) (at 114.3 58.42 90)
      (effects (font (size 1.524 1.524)) hide)
    )
    (property "Footprint" "random keyboard parts:Empty" (id 2) (at 110.49 59.69 0)
      (effects (font (size 1.524 1.524)) hide)
    )
    (property "Datasheet" "" (id 3) (at 110.49 59.69 0)
      (effects (font (size 1.524 1.524)))
    )
    (pin "1" (uuid 77f620dd-79cb-40c8-aa7a-c2a527f52773))
    (pin "2" (uuid 718ee5e5-1996-49b9-86d0-0eaf05d9cb2a))
  )

  (symbol (lib_id "keyboard_parts:D") (at 110.49 80.01 0) (mirror x) (unit 1)
    (in_bom yes) (on_board yes) (fields_autoplaced)
    (uuid 0771ad4a-7202-442f-a5a2-2e30540f4099)
    (property "Reference" "D12" (id 0) (at 106.68 79.375 0)
      (effects (font (size 1.524 1.524)) (justify right))
    )
    (property "Value" "D" (id 1) (at 114.3 78.74 90)
      (effects (font (size 1.524 1.524)) hide)
    )
    (property "Footprint" "random keyboard parts:Empty" (id 2) (at 110.49 80.01 0)
      (effects (font (size 1.524 1.524)) hide)
    )
    (property "Datasheet" "" (id 3) (at 110.49 80.01 0)
      (effects (font (size 1.524 1.524)))
    )
    (pin "1" (uuid 00e9aa43-2e12-45d3-a28a-40f2656a67c2))
    (pin "2" (uuid 55908843-ccc3-4c4f-a50b-f6b8cdae3012))
  )

  (symbol (lib_id "keyboard_parts:D") (at 110.49 100.33 0) (mirror x) (unit 1)
    (in_bom yes) (on_board yes) (fields_autoplaced)
    (uuid 2ffb07c5-2c80-4303-b36f-1b03e8fb7395)
    (property "Reference" "D17" (id 0) (at 106.68 99.695 0)
      (effects (font (size 1.524 1.524)) (justify right))
    )
    (property "Value" "D" (id 1) (at 114.3 99.06 90)
      (effects (font (size 1.524 1.524)) hide)
    )
    (property "Footprint" "random keyboard parts:Empty" (id 2) (at 110.49 100.33 0)
      (effects (font (size 1.524 1.524)) hide)
    )
    (property "Datasheet" "" (id 3) (at 110.49 100.33 0)
      (effects (font (size 1.524 1.524)))
    )
    (pin "1" (uuid 5ca588e3-bbcb-4e75-9a73-f280c06145cc))
    (pin "2" (uuid cdfb056e-e46e-440a-9c33-89037b173c6b))
  )

  (symbol (lib_id "keyboard_parts:D") (at 132.08 39.37 0) (mirror x) (unit 1)
    (in_bom yes) (on_board yes) (fields_autoplaced)
    (uuid b14763f6-e9d7-41ed-994f-89d8b4b34426)
    (property "Reference" "D3" (id 0) (at 128.27 38.735 0)
      (effects (font (size 1.524 1.524)) (justify right))
    )
    (property "Value" "D" (id 1) (at 135.89 38.1 90)
      (effects (font (size 1.524 1.524)) hide)
    )
    (property "Footprint" "random keyboard parts:Empty" (id 2) (at 132.08 39.37 0)
      (effects (font (size 1.524 1.524)) hide)
    )
    (property "Datasheet" "" (id 3) (at 132.08 39.37 0)
      (effects (font (size 1.524 1.524)))
    )
    (pin "1" (uuid f68b6a9f-b01c-4241-884f-51b97cf6c87f))
    (pin "2" (uuid cf73a5a6-771e-4e41-a142-15ecfc05494f))
  )

  (symbol (lib_id "keyboard_parts:D") (at 132.08 59.69 0) (mirror x) (unit 1)
    (in_bom yes) (on_board yes) (fields_autoplaced)
    (uuid 44fbdde1-2ea3-4715-8206-058ea8500a54)
    (property "Reference" "D8" (id 0) (at 128.27 59.055 0)
      (effects (font (size 1.524 1.524)) (justify right))
    )
    (property "Value" "D" (id 1) (at 135.89 58.42 90)
      (effects (font (size 1.524 1.524)) hide)
    )
    (property "Footprint" "random keyboard parts:Empty" (id 2) (at 132.08 59.69 0)
      (effects (font (size 1.524 1.524)) hide)
    )
    (property "Datasheet" "" (id 3) (at 132.08 59.69 0)
      (effects (font (size 1.524 1.524)))
    )
    (pin "1" (uuid b8690750-a1ea-4140-af7f-d86da11c86c9))
    (pin "2" (uuid 8c7bc0b6-947e-4d2f-bd44-e3bc13ad78fb))
  )

  (symbol (lib_id "keyboard_parts:D") (at 132.08 80.01 0) (mirror x) (unit 1)
    (in_bom yes) (on_board yes) (fields_autoplaced)
    (uuid 1d9c36de-0290-41f7-aba8-dc73a87691be)
    (property "Reference" "D13" (id 0) (at 128.27 79.375 0)
      (effects (font (size 1.524 1.524)) (justify right))
    )
    (property "Value" "D" (id 1) (at 135.89 78.74 90)
      (effects (font (size 1.524 1.524)) hide)
    )
    (property "Footprint" "random keyboard parts:Empty" (id 2) (at 132.08 80.01 0)
      (effects (font (size 1.524 1.524)) hide)
    )
    (property "Datasheet" "" (id 3) (at 132.08 80.01 0)
      (effects (font (size 1.524 1.524)))
    )
    (pin "1" (uuid d39cd7d4-20a2-407f-8d3b-925478613641))
    (pin "2" (uuid a0ce45e8-7bb1-4c29-8137-958b68673f8f))
  )

  (symbol (lib_id "keyboard_parts:D") (at 153.67 39.37 0) (mirror x) (unit 1)
    (in_bom yes) (on_board yes) (fields_autoplaced)
    (uuid 661e8db0-e34d-4630-83ce-1c8d36599812)
    (property "Reference" "D4" (id 0) (at 149.86 38.735 0)
      (effects (font (size 1.524 1.524)) (justify right))
    )
    (property "Value" "D" (id 1) (at 157.48 38.1 90)
      (effects (font (size 1.524 1.524)) hide)
    )
    (property "Footprint" "random keyboard parts:Empty" (id 2) (at 153.67 39.37 0)
      (effects (font (size 1.524 1.524)) hide)
    )
    (property "Datasheet" "" (id 3) (at 153.67 39.37 0)
      (effects (font (size 1.524 1.524)))
    )
    (pin "1" (uuid 0380437d-7bd0-4396-9302-1192539e10b7))
    (pin "2" (uuid 4b6a30c5-9147-4372-9f97-16daa7a11420))
  )

  (symbol (lib_id "keyboard_parts:D") (at 153.67 59.69 0) (mirror x) (unit 1)
    (in_bom yes) (on_board yes) (fields_autoplaced)
    (uuid eee29088-e3e1-41a0-87fa-d2aef7159e81)
    (property "Reference" "D9" (id 0) (at 149.86 59.055 0)
      (effects (font (size 1.524 1.524)) (justify right))
    )
    (property "Value" "D" (id 1) (at 157.48 58.42 90)
      (effects (font (size 1.524 1.524)) hide)
    )
    (property "Footprint" "random keyboard parts:Empty" (id 2) (at 153.67 59.69 0)
      (effects (font (size 1.524 1.524)) hide)
    )
    (property "Datasheet" "" (id 3) (at 153.67 59.69 0)
      (effects (font (size 1.524 1.524)))
    )
    (pin "1" (uuid 34151b24-86ad-4910-a334-c9a010506e4a))
    (pin "2" (uuid 2e66090a-74bd-43b3-933e-cd301027eeea))
  )

  (symbol (lib_id "keyboard_parts:D") (at 153.67 80.01 0) (mirror x) (unit 1)
    (in_bom yes) (on_board yes) (fields_autoplaced)
    (uuid bc53b749-7fe0-43b3-91dd-998829e0ae61)
    (property "Reference" "D14" (id 0) (at 149.86 79.375 0)
      (effects (font (size 1.524 1.524)) (justify right))
    )
    (property "Value" "D" (id 1) (at 157.48 78.74 90)
      (effects (font (size 1.524 1.524)) hide)
    )
    (property "Footprint" "random keyboard parts:Empty" (id 2) (at 153.67 80.01 0)
      (effects (font (size 1.524 1.524)) hide)
    )
    (property "Datasheet" "" (id 3) (at 153.67 80.01 0)
      (effects (font (size 1.524 1.524)))
    )
    (pin "1" (uuid a418557a-d649-48de-844c-0263fd47703f))
    (pin "2" (uuid 8cbe0a27-dea8-44b1-b216-8978e6a19722))
  )

  (symbol (lib_id "keyboard_parts:D") (at 175.26 39.37 0) (mirror x) (unit 1)
    (in_bom yes) (on_board yes) (fields_autoplaced)
    (uuid d51bfa7c-c7b6-4e71-8671-d58fb125bc71)
    (property "Reference" "D5" (id 0) (at 171.45 38.735 0)
      (effects (font (size 1.524 1.524)) (justify right))
    )
    (property "Value" "D" (id 1) (at 179.07 38.1 90)
      (effects (font (size 1.524 1.524)) hide)
    )
    (property "Footprint" "random keyboard parts:Empty" (id 2) (at 175.26 39.37 0)
      (effects (font (size 1.524 1.524)) hide)
    )
    (property "Datasheet" "" (id 3) (at 175.26 39.37 0)
      (effects (font (size 1.524 1.524)))
    )
    (pin "1" (uuid 7ffe6c4d-e565-4854-a8ed-19be04b416f2))
    (pin "2" (uuid 9ef0cc26-6a62-4199-9e57-0164e1924bc9))
  )

  (symbol (lib_id "keyboard_parts:D") (at 175.26 59.69 0) (mirror x) (unit 1)
    (in_bom yes) (on_board yes) (fields_autoplaced)
    (uuid 07229c46-d4cd-40d9-a8ae-25f100ed821b)
    (property "Reference" "D10" (id 0) (at 171.45 59.055 0)
      (effects (font (size 1.524 1.524)) (justify right))
    )
    (property "Value" "D" (id 1) (at 179.07 58.42 90)
      (effects (font (size 1.524 1.524)) hide)
    )
    (property "Footprint" "random keyboard parts:Empty" (id 2) (at 175.26 59.69 0)
      (effects (font (size 1.524 1.524)) hide)
    )
    (property "Datasheet" "" (id 3) (at 175.26 59.69 0)
      (effects (font (size 1.524 1.524)))
    )
    (pin "1" (uuid 91550275-bebe-4324-9362-7e116b7b8566))
    (pin "2" (uuid 95346403-3f97-4e52-89d3-a7f89ae95228))
  )

  (symbol (lib_id "keyboard_parts:D") (at 175.26 80.01 0) (mirror x) (unit 1)
    (in_bom yes) (on_board yes) (fields_autoplaced)
    (uuid 06deea94-43d8-4ec9-887d-837dab19defc)
    (property "Reference" "D15" (id 0) (at 171.45 79.375 0)
      (effects (font (size 1.524 1.524)) (justify right))
    )
    (property "Value" "D" (id 1) (at 179.07 78.74 90)
      (effects (font (size 1.524 1.524)) hide)
    )
    (property "Footprint" "random keyboard parts:Empty" (id 2) (at 175.26 80.01 0)
      (effects (font (size 1.524 1.524)) hide)
    )
    (property "Datasheet" "" (id 3) (at 175.26 80.01 0)
      (effects (font (size 1.524 1.524)))
    )
    (pin "1" (uuid 3cfc1674-10ee-4c84-b050-d3533aefb965))
    (pin "2" (uuid 97cd9f5b-a0d2-4d9c-990d-9b4954307c84))
  )

  (symbol (lib_id "keyboard_parts:R") (at 54.61 95.25 0) (unit 1)
    (in_bom yes) (on_board yes)
    (uuid 94bfad75-7759-47b1-8f73-6c51d6f2c508)
    (property "Reference" "R1" (id 0) (at 57.15 93.9799 0)
      (effects (font (size 1.27 1.27)) (justify left))
    )
    (property "Value" "4.7k" (id 1) (at 57.15 96.5199 0)
      (effects (font (size 1.27 1.27)) (justify left))
    )
    (property "Footprint" "random keyboard parts:Empty" (id 2) (at 54.61 95.25 0)
      (effects (font (size 1.524 1.524)) hide)
    )
    (property "Datasheet" "" (id 3) (at 54.61 95.25 0)
      (effects (font (size 1.524 1.524)))
    )
    (pin "1" (uuid fb0be09e-40a6-49e4-b8ad-cc0ac67d804f))
    (pin "2" (uuid 83e353a9-e4dc-41e5-8c50-1a59d3fe8a47))
  )

  (symbol (lib_id "keyboard_parts:R") (at 63.5 95.25 0) (unit 1)
    (in_bom yes) (on_board yes) (fields_autoplaced)
    (uuid d6844102-7c54-41e5-b644-18d9024833a1)
    (property "Reference" "R2" (id 0) (at 66.04 93.9799 0)
      (effects (font (size 1.27 1.27)) (justify left))
    )
    (property "Value" "4.7k" (id 1) (at 66.04 96.5199 0)
      (effects (font (size 1.27 1.27)) (justify left))
    )
    (property "Footprint" "random keyboard parts:Empty" (id 2) (at 63.5 95.25 0)
      (effects (font (size 1.524 1.524)) hide)
    )
    (property "Datasheet" "" (id 3) (at 63.5 95.25 0)
      (effects (font (size 1.524 1.524)))
    )
    (pin "1" (uuid 996edffa-8c7d-4cd7-a977-6825195532ed))
    (pin "2" (uuid a83d4945-d843-4a87-a55c-f6ad845ccb01))
  )

  (symbol (lib_id "keyboard_parts:KEYSW") (at 99.06 33.02 0) (unit 1)
    (in_bom yes) (on_board yes)
    (uuid 9eb63512-05c8-429b-ab40-ef90044e8e31)
    (property "Reference" "K1" (id 0) (at 99.06 26.67 0)
      (effects (font (size 1.524 1.524)))
    )
    (property "Value" "KEYSW" (id 1) (at 99.06 35.56 0)
      (effects (font (size 1.524 1.524)) hide)
    )
    (property "Footprint" "random keyboard parts:Empty" (id 2) (at 99.06 33.02 0)
      (effects (font (size 1.524 1.524)) hide)
    )
    (property "Datasheet" "" (id 3) (at 99.06 33.02 0)
      (effects (font (size 1.524 1.524)))
    )
    (pin "1" (uuid 22624b12-63e7-4b92-812d-a1d07b82aa10))
    (pin "2" (uuid dda1a01c-dd3c-471d-8c72-ad48ad790952))
  )

  (symbol (lib_id "keyboard_parts:KEYSW") (at 99.06 53.34 0) (unit 1)
    (in_bom yes) (on_board yes)
    (uuid d6f0480d-3f7e-44ba-83a1-ad90e747ba87)
    (property "Reference" "K6" (id 0) (at 99.06 46.99 0)
      (effects (font (size 1.524 1.524)))
    )
    (property "Value" "KEYSW" (id 1) (at 99.06 55.88 0)
      (effects (font (size 1.524 1.524)) hide)
    )
    (property "Footprint" "random keyboard parts:Empty" (id 2) (at 99.06 53.34 0)
      (effects (font (size 1.524 1.524)) hide)
    )
    (property "Datasheet" "" (id 3) (at 99.06 53.34 0)
      (effects (font (size 1.524 1.524)))
    )
    (pin "1" (uuid 373604db-ff72-4667-aa73-f7c8cb621c3c))
    (pin "2" (uuid af9787d3-5df1-4894-91bc-e712c950fd36))
  )

  (symbol (lib_id "keyboard_parts:KEYSW") (at 99.06 73.66 0) (unit 1)
    (in_bom yes) (on_board yes)
    (uuid c0d7c9e1-d3b9-44db-9438-a6ea0168632b)
    (property "Reference" "K11" (id 0) (at 99.06 67.31 0)
      (effects (font (size 1.524 1.524)))
    )
    (property "Value" "KEYSW" (id 1) (at 99.06 76.2 0)
      (effects (font (size 1.524 1.524)) hide)
    )
    (property "Footprint" "random keyboard parts:Empty" (id 2) (at 99.06 73.66 0)
      (effects (font (size 1.524 1.524)) hide)
    )
    (property "Datasheet" "" (id 3) (at 99.06 73.66 0)
      (effects (font (size 1.524 1.524)))
    )
    (pin "1" (uuid 80d838ba-38b8-430a-ba7b-925d7ad0e274))
    (pin "2" (uuid f5d36c4e-c7f2-459f-8857-892307272918))
  )

  (symbol (lib_id "keyboard_parts:KEYSW") (at 99.06 93.98 0) (unit 1)
    (in_bom yes) (on_board yes)
    (uuid e1476176-d274-4edf-9145-2f2e6d4364da)
    (property "Reference" "K16" (id 0) (at 99.06 87.63 0)
      (effects (font (size 1.524 1.524)))
    )
    (property "Value" "KEYSW" (id 1) (at 99.06 96.52 0)
      (effects (font (size 1.524 1.524)) hide)
    )
    (property "Footprint" "random keyboard parts:Empty" (id 2) (at 99.06 93.98 0)
      (effects (font (size 1.524 1.524)) hide)
    )
    (property "Datasheet" "" (id 3) (at 99.06 93.98 0)
      (effects (font (size 1.524 1.524)))
    )
    (pin "1" (uuid 3e1f1337-b6db-410c-87b9-2a6957102e9d))
    (pin "2" (uuid 46f385da-2c6a-4561-9e44-f6d77c3a937e))
  )

  (symbol (lib_id "keyboard_parts:KEYSW") (at 120.65 33.02 0) (unit 1)
    (in_bom yes) (on_board yes)
    (uuid c6a194f5-dd4d-41b9-bd84-f6caa8fdca48)
    (property "Reference" "K2" (id 0) (at 120.65 26.67 0)
      (effects (font (size 1.524 1.524)))
    )
    (property "Value" "KEYSW" (id 1) (at 120.65 35.56 0)
      (effects (font (size 1.524 1.524)) hide)
    )
    (property "Footprint" "random keyboard parts:Empty" (id 2) (at 120.65 33.02 0)
      (effects (font (size 1.524 1.524)) hide)
    )
    (property "Datasheet" "" (id 3) (at 120.65 33.02 0)
      (effects (font (size 1.524 1.524)))
    )
    (pin "1" (uuid e46fb402-3867-4bb8-8340-2372a5e81c38))
    (pin "2" (uuid aa18837a-3d63-4529-a8e3-6e8ff1bccdef))
  )

  (symbol (lib_id "keyboard_parts:KEYSW") (at 120.65 53.34 0) (unit 1)
    (in_bom yes) (on_board yes)
    (uuid 93fefc6f-0fde-42e3-af0f-51b29c14784e)
    (property "Reference" "K7" (id 0) (at 120.65 46.99 0)
      (effects (font (size 1.524 1.524)))
    )
    (property "Value" "KEYSW" (id 1) (at 120.65 55.88 0)
      (effects (font (size 1.524 1.524)) hide)
    )
    (property "Footprint" "random keyboard parts:Empty" (id 2) (at 120.65 53.34 0)
      (effects (font (size 1.524 1.524)) hide)
    )
    (property "Datasheet" "" (id 3) (at 120.65 53.34 0)
      (effects (font (size 1.524 1.524)))
    )
    (pin "1" (uuid ae3ced0f-b8ae-4b36-a55e-d41dad92fce1))
    (pin "2" (uuid d346bb69-df9f-4694-a195-6b884641b64e))
  )

  (symbol (lib_id "keyboard_parts:KEYSW") (at 120.65 73.66 0) (unit 1)
    (in_bom yes) (on_board yes)
    (uuid e9f5dedb-d5d9-43ea-b1b2-09ddba19bc96)
    (property "Reference" "K12" (id 0) (at 120.65 67.31 0)
      (effects (font (size 1.524 1.524)))
    )
    (property "Value" "KEYSW" (id 1) (at 120.65 76.2 0)
      (effects (font (size 1.524 1.524)) hide)
    )
    (property "Footprint" "random keyboard parts:Empty" (id 2) (at 120.65 73.66 0)
      (effects (font (size 1.524 1.524)) hide)
    )
    (property "Datasheet" "" (id 3) (at 120.65 73.66 0)
      (effects (font (size 1.524 1.524)))
    )
    (pin "1" (uuid 88668fb7-630e-43bb-8cb8-05beae04ed3a))
    (pin "2" (uuid 040a0890-6066-43b0-80d1-8e5ef9b033bb))
  )

  (symbol (lib_id "keyboard_parts:KEYSW") (at 120.65 93.98 0) (unit 1)
    (in_bom yes) (on_board yes)
    (uuid d2ce21e9-af6f-4b52-9089-cd715849d5e6)
    (property "Reference" "K17" (id 0) (at 120.65 87.63 0)
      (effects (font (size 1.524 1.524)))
    )
    (property "Value" "KEYSW" (id 1) (at 120.65 96.52 0)
      (effects (font (size 1.524 1.524)) hide)
    )
    (property "Footprint" "random keyboard parts:Empty" (id 2) (at 120.65 93.98 0)
      (effects (font (size 1.524 1.524)) hide)
    )
    (property "Datasheet" "" (id 3) (at 120.65 93.98 0)
      (effects (font (size 1.524 1.524)))
    )
    (pin "1" (uuid dc3656de-f962-46f8-b275-1070d9545cc0))
    (pin "2" (uuid 0f284df8-25e9-4b30-b43e-d990ea4d430d))
  )

  (symbol (lib_id "keyboard_parts:KEYSW") (at 142.24 33.02 0) (unit 1)
    (in_bom yes) (on_board yes)
    (uuid f87cd20f-c8a7-46fb-98d7-d1e0d83f4365)
    (property "Reference" "K3" (id 0) (at 142.24 26.67 0)
      (effects (font (size 1.524 1.524)))
    )
    (property "Value" "KEYSW" (id 1) (at 142.24 35.56 0)
      (effects (font (size 1.524 1.524)) hide)
    )
    (property "Footprint" "random keyboard parts:Empty" (id 2) (at 142.24 33.02 0)
      (effects (font (size 1.524 1.524)) hide)
    )
    (property "Datasheet" "" (id 3) (at 142.24 33.02 0)
      (effects (font (size 1.524 1.524)))
    )
    (pin "1" (uuid d5655a64-2642-49af-b8a7-fbfc88b0d1c0))
    (pin "2" (uuid c6578b11-8806-429f-8112-40457caff71c))
  )

  (symbol (lib_id "keyboard_parts:KEYSW") (at 142.24 53.34 0) (unit 1)
    (in_bom yes) (on_board yes)
    (uuid cd4e4ff0-7922-4c04-a38c-05c4a1a1fdad)
    (property "Reference" "K8" (id 0) (at 142.24 46.99 0)
      (effects (font (size 1.524 1.524)))
    )
    (property "Value" "KEYSW" (id 1) (at 142.24 55.88 0)
      (effects (font (size 1.524 1.524)) hide)
    )
    (property "Footprint" "random keyboard parts:Empty" (id 2) (at 142.24 53.34 0)
      (effects (font (size 1.524 1.524)) hide)
    )
    (property "Datasheet" "" (id 3) (at 142.24 53.34 0)
      (effects (font (size 1.524 1.524)))
    )
    (pin "1" (uuid d8fac00a-57e2-424c-bc57-ecc54cf24789))
    (pin "2" (uuid c35dafab-ed5b-4539-8575-e7ae411f67b0))
  )

  (symbol (lib_id "keyboard_parts:KEYSW") (at 142.24 73.66 0) (unit 1)
    (in_bom yes) (on_board yes)
    (uuid 95343729-a28c-4839-a842-c10e4dca8c81)
    (property "Reference" "K13" (id 0) (at 142.24 67.31 0)
      (effects (font (size 1.524 1.524)))
    )
    (property "Value" "KEYSW" (id 1) (at 142.24 76.2 0)
      (effects (font (size 1.524 1.524)) hide)
    )
    (property "Footprint" "random keyboard parts:Empty" (id 2) (at 142.24 73.66 0)
      (effects (font (size 1.524 1.524)) hide)
    )
    (property "Datasheet" "" (id 3) (at 142.24 73.66 0)
      (effects (font (size 1.524 1.524)))
    )
    (pin "1" (uuid 29326f25-fd70-4a36-a2cd-4a59c2009615))
    (pin "2" (uuid ef695986-7447-487c-9d6b-102661bf0209))
  )

  (symbol (lib_id "keyboard_parts:KEYSW") (at 163.83 33.02 0) (unit 1)
    (in_bom yes) (on_board yes)
    (uuid 3aeb9419-c537-4e24-a83d-067dce29e7a9)
    (property "Reference" "K4" (id 0) (at 163.83 26.67 0)
      (effects (font (size 1.524 1.524)))
    )
    (property "Value" "KEYSW" (id 1) (at 163.83 35.56 0)
      (effects (font (size 1.524 1.524)) hide)
    )
    (property "Footprint" "random keyboard parts:Empty" (id 2) (at 163.83 33.02 0)
      (effects (font (size 1.524 1.524)) hide)
    )
    (property "Datasheet" "" (id 3) (at 163.83 33.02 0)
      (effects (font (size 1.524 1.524)))
    )
    (pin "1" (uuid ef4e7868-e950-4f25-8e5f-bb75cd9ee2e7))
    (pin "2" (uuid 67766f03-c884-45fa-b290-ac201bb00923))
  )

  (symbol (lib_id "keyboard_parts:KEYSW") (at 163.83 53.34 0) (unit 1)
    (in_bom yes) (on_board yes)
    (uuid 550bcc51-c48e-4d05-836c-f420a7087468)
    (property "Reference" "K9" (id 0) (at 163.83 46.99 0)
      (effects (font (size 1.524 1.524)))
    )
    (property "Value" "KEYSW" (id 1) (at 163.83 55.88 0)
      (effects (font (size 1.524 1.524)) hide)
    )
    (property "Footprint" "random keyboard parts:Empty" (id 2) (at 163.83 53.34 0)
      (effects (font (size 1.524 1.524)) hide)
    )
    (property "Datasheet" "" (id 3) (at 163.83 53.34 0)
      (effects (font (size 1.524 1.524)))
    )
    (pin "1" (uuid 847da7c2-10a4-47bc-817e-b3d1ed644f44))
    (pin "2" (uuid 0e510542-bbd1-4eae-b51c-ef152767c24b))
  )

  (symbol (lib_id "keyboard_parts:KEYSW") (at 163.83 73.66 0) (unit 1)
    (in_bom yes) (on_board yes)
    (uuid b9097ddb-0e93-4d57-bdc5-44b5a1de6c1b)
    (property "Reference" "K14" (id 0) (at 163.83 67.31 0)
      (effects (font (size 1.524 1.524)))
    )
    (property "Value" "KEYSW" (id 1) (at 163.83 76.2 0)
      (effects (font (size 1.524 1.524)) hide)
    )
    (property "Footprint" "random keyboard parts:Empty" (id 2) (at 163.83 73.66 0)
      (effects (font (size 1.524 1.524)) hide)
    )
    (property "Datasheet" "" (id 3) (at 163.83 73.66 0)
      (effects (font (size 1.524 1.524)))
    )
    (pin "1" (uuid 64c57c99-09fb-4756-b9b7-e3b45f496e83))
    (pin "2" (uuid 39007197-f848-47ca-92c7-44562bdfba6a))
  )

  (symbol (lib_id "keyboard_parts:KEYSW") (at 185.42 33.02 0) (unit 1)
    (in_bom yes) (on_board yes)
    (uuid 06243ab5-cbc9-4df9-8c0c-989c38eeb3b6)
    (property "Reference" "K5" (id 0) (at 185.42 26.67 0)
      (effects (font (size 1.524 1.524)))
    )
    (property "Value" "KEYSW" (id 1) (at 185.42 35.56 0)
      (effects (font (size 1.524 1.524)) hide)
    )
    (property "Footprint" "random keyboard parts:Empty" (id 2) (at 185.42 33.02 0)
      (effects (font (size 1.524 1.524)) hide)
    )
    (property "Datasheet" "" (id 3) (at 185.42 33.02 0)
      (effects (font (size 1.524 1.524)))
    )
    (pin "1" (uuid 62fcffb8-9afe-475b-80e8-c380b65e6ce1))
    (pin "2" (uuid cd60b92f-f882-4340-baa8-046aedcaebe1))
  )

  (symbol (lib_id "keyboard_parts:KEYSW") (at 185.42 53.34 0) (unit 1)
    (in_bom yes) (on_board yes)
    (uuid 8175599d-1908-446e-a7c7-ba4eb9a186d1)
    (property "Reference" "K10" (id 0) (at 185.42 46.99 0)
      (effects (font (size 1.524 1.524)))
    )
    (property "Value" "KEYSW" (id 1) (at 185.42 55.88 0)
      (effects (font (size 1.524 1.524)) hide)
    )
    (property "Footprint" "random keyboard parts:Empty" (id 2) (at 185.42 53.34 0)
      (effects (font (size 1.524 1.524)) hide)
    )
    (property "Datasheet" "" (id 3) (at 185.42 53.34 0)
      (effects (font (size 1.524 1.524)))
    )
    (pin "1" (uuid 82115a55-6091-4bdf-8bc8-3f6972492d75))
    (pin "2" (uuid bbea1889-1d91-4a7b-84af-5a4eb2a79d90))
  )

  (symbol (lib_id "keyboard_parts:KEYSW") (at 185.42 73.66 0) (unit 1)
    (in_bom yes) (on_board yes)
    (uuid 4206f408-e29e-4b76-b563-a98a05f55a0b)
    (property "Reference" "K15" (id 0) (at 185.42 67.31 0)
      (effects (font (size 1.524 1.524)))
    )
    (property "Value" "KEYSW" (id 1) (at 185.42 76.2 0)
      (effects (font (size 1.524 1.524)) hide)
    )
    (property "Footprint" "random keyboard parts:Empty" (id 2) (at 185.42 73.66 0)
      (effects (font (size 1.524 1.524)) hide)
    )
    (property "Datasheet" "" (id 3) (at 185.42 73.66 0)
      (effects (font (size 1.524 1.524)))
    )
    (pin "1" (uuid ca23ed97-0ba8-4030-b115-adf5d50ec30a))
    (pin "2" (uuid 5f3d7b7d-e5b9-4f08-8835-d3f602d413a7))
  )

  (symbol (lib_id "keebio:TRRS") (at 33.02 90.17 180) (unit 1)
    (in_bom yes) (on_board yes) (fields_autoplaced)
    (uuid 304f43aa-7b7f-4962-8823-8b6534f0c02c)
    (property "Reference" "U2" (id 0) (at 35.1155 83.82 0)
      (effects (font (size 1.524 1.524)))
    )
    (property "Value" "TRRS" (id 1) (at 35.1155 87.63 0)
      (effects (font (size 1.524 1.524)))
    )
    (property "Footprint" "random keyboard parts:Empty" (id 2) (at 29.21 90.17 0)
      (effects (font (size 1.524 1.524)) hide)
    )
    (property "Datasheet" "" (id 3) (at 29.21 90.17 0)
      (effects (font (size 1.524 1.524)) hide)
    )
    (pin "1" (uuid 8b4335b8-5aa7-46e1-a85a-07d8a9c31861))
    (pin "2" (uuid 6355f3c7-87f0-42fd-ba24-02e263e26b08))
    (pin "3" (uuid a9b17cd0-5baa-4edc-8c05-0b19a49371d1))
    (pin "4" (uuid e1d567ac-bdfd-4de8-989b-f9362519e10f))
  )

  (symbol (lib_id "keebio:ProMicro") (at 49.53 49.53 0) (unit 1)
    (in_bom yes) (on_board yes) (fields_autoplaced)
    (uuid 3c497d98-a75a-4ec9-97c0-8c92306ac50e)
    (property "Reference" "U1" (id 0) (at 49.53 26.67 0)
      (effects (font (size 1.524 1.524)))
    )
    (property "Value" "ELITE-C" (id 1) (at 49.53 30.48 0)
      (effects (font (size 1.524 1.524)))
    )
    (property "Footprint" "random keyboard parts:Empty" (id 2) (at 76.2 113.03 90)
      (effects (font (size 1.524 1.524)) hide)
    )
    (property "Datasheet" "" (id 3) (at 76.2 113.03 90)
      (effects (font (size 1.524 1.524)) hide)
    )
    (pin "1" (uuid e5e749ca-db8f-4772-bd92-87842a6fc3e0))
    (pin "10" (uuid 32f8a615-8708-4226-85ab-277c1855c05a))
    (pin "11" (uuid 84f6ae97-1473-4d5f-9499-9ae313024991))
    (pin "12" (uuid abef6577-cbef-4f06-9e54-d5cb07b3963a))
    (pin "13" (uuid a55f5cb7-6c95-4938-a1ca-5f32e01b3a21))
    (pin "14" (uuid 76a6d19e-3c47-48ec-bdcd-c114ea053e19))
    (pin "15" (uuid 69f80128-3d2b-49e1-b759-2f7f48bbb4ce))
    (pin "16" (uuid b815b2c3-61a5-452e-9386-c404cfd7ce6a))
    (pin "17" (uuid 3efaa71b-1746-4696-bcb1-6d4f821760bd))
    (pin "18" (uuid b74da16e-dc78-47f3-8931-e8b3d65ed175))
    (pin "19" (uuid 4f2e40a6-ead6-42d2-8f93-dab6ea38606d))
    (pin "2" (uuid 8fe1583b-905c-4bb1-a3ed-60d845c51d05))
    (pin "20" (uuid e3d0e8e3-cd73-4931-94b1-e11bf63d72da))
    (pin "21" (uuid 7a9a2d24-0703-47f7-b547-650705375c9e))
    (pin "22" (uuid c6510496-085c-430e-a4c5-172e05ba1069))
    (pin "23" (uuid f0519c74-0a64-45e1-8c86-18e7b777bc8e))
    (pin "24" (uuid c3682b68-b1c6-43bc-92ca-e2be5b52e2c8))
    (pin "3" (uuid eb97a6f9-ee2b-4df2-b904-db93f29552e5))
    (pin "4" (uuid 511ef1c5-cc38-4cfb-b2ff-c630ad59daa4))
    (pin "5" (uuid bd782583-b3f7-48db-8e30-d0d6569a91fe))
    (pin "6" (uuid 9b9bfaf2-04db-462c-949d-6c5a29ef49fa))
    (pin "7" (uuid c5ee4bdd-5af2-44a1-9627-b26cb3ed4bd2))
    (pin "8" (uuid 8e573996-9783-4509-8909-b990dbf69e00))
    (pin "9" (uuid a1d4f4c1-4ae3-4487-95fc-440155d50d01))
  )

  (sheet_instances
    (path "/" (page "1"))
  )

  (symbol_instances
    (path "/2f23f9f5-9cff-471c-a43f-d14cf2b5b987"
      (reference "#PWR01") (unit 1) (value "GND") (footprint "")
    )
    (path "/4ced37de-5754-4f18-9a34-ca39b8469636"
      (reference "#PWR02") (unit 1) (value "GND") (footprint "")
    )
    (path "/816cbbf1-dad6-4c12-a0de-ec9b46028b37"
      (reference "#PWR03") (unit 1) (value "GND") (footprint "")
    )
    (path "/ad18b79b-be99-455a-8101-7fe4cf733d3c"
      (reference "#PWR04") (unit 1) (value "GND") (footprint "")
    )
    (path "/e46a1270-de83-4349-a81e-fd3bb905afe2"
      (reference "#PWR05") (unit 1) (value "GND") (footprint "")
    )
    (path "/b3adb5bf-d879-45f4-a5ee-d136e833e17d"
      (reference "D1") (unit 1) (value "D") (footprint "random keyboard parts:Empty")
    )
    (path "/9ca66732-1f4e-46ae-af17-b606358de06a"
      (reference "D2") (unit 1) (value "D") (footprint "random keyboard parts:Empty")
    )
    (path "/b14763f6-e9d7-41ed-994f-89d8b4b34426"
      (reference "D3") (unit 1) (value "D") (footprint "random keyboard parts:Empty")
    )
    (path "/661e8db0-e34d-4630-83ce-1c8d36599812"
      (reference "D4") (unit 1) (value "D") (footprint "random keyboard parts:Empty")
    )
    (path "/d51bfa7c-c7b6-4e71-8671-d58fb125bc71"
      (reference "D5") (unit 1) (value "D") (footprint "random keyboard parts:Empty")
    )
    (path "/21aecf4d-236d-477a-9118-8f40ecd6d65c"
      (reference "D6") (unit 1) (value "D") (footprint "random keyboard parts:Empty")
    )
    (path "/9568fe1e-4884-4d3f-8141-2e4a907e0714"
      (reference "D7") (unit 1) (value "D") (footprint "random keyboard parts:Empty")
    )
    (path "/44fbdde1-2ea3-4715-8206-058ea8500a54"
      (reference "D8") (unit 1) (value "D") (footprint "random keyboard parts:Empty")
    )
    (path "/eee29088-e3e1-41a0-87fa-d2aef7159e81"
      (reference "D9") (unit 1) (value "D") (footprint "random keyboard parts:Empty")
    )
    (path "/07229c46-d4cd-40d9-a8ae-25f100ed821b"
      (reference "D10") (unit 1) (value "D") (footprint "random keyboard parts:Empty")
    )
    (path "/7d363c93-09f3-4970-984e-f219295c0651"
      (reference "D11") (unit 1) (value "D") (footprint "random keyboard parts:Empty")
    )
    (path "/0771ad4a-7202-442f-a5a2-2e30540f4099"
      (reference "D12") (unit 1) (value "D") (footprint "random keyboard parts:Empty")
    )
    (path "/1d9c36de-0290-41f7-aba8-dc73a87691be"
      (reference "D13") (unit 1) (value "D") (footprint "random keyboard parts:Empty")
    )
    (path "/bc53b749-7fe0-43b3-91dd-998829e0ae61"
      (reference "D14") (unit 1) (value "D") (footprint "random keyboard parts:Empty")
    )
    (path "/06deea94-43d8-4ec9-887d-837dab19defc"
      (reference "D15") (unit 1) (value "D") (footprint "random keyboard parts:Empty")
    )
    (path "/eff90bac-aebc-4ce5-8103-c07ffccf89f5"
      (reference "D16") (unit 1) (value "D") (footprint "random keyboard parts:Empty")
    )
    (path "/2ffb07c5-2c80-4303-b36f-1b03e8fb7395"
      (reference "D17") (unit 1) (value "D") (footprint "random keyboard parts:Empty")
    )
    (path "/9eb63512-05c8-429b-ab40-ef90044e8e31"
      (reference "K1") (unit 1) (value "KEYSW") (footprint "random keyboard parts:Empty")
    )
    (path "/c6a194f5-dd4d-41b9-bd84-f6caa8fdca48"
      (reference "K2") (unit 1) (value "KEYSW") (footprint "random keyboard parts:Empty")
    )
    (path "/f87cd20f-c8a7-46fb-98d7-d1e0d83f4365"
      (reference "K3") (unit 1) (value "KEYSW") (footprint "random keyboard parts:Empty")
    )
    (path "/3aeb9419-c537-4e24-a83d-067dce29e7a9"
      (reference "K4") (unit 1) (value "KEYSW") (footprint "random keyboard parts:Empty")
    )
    (path "/06243ab5-cbc9-4df9-8c0c-989c38eeb3b6"
      (reference "K5") (unit 1) (value "KEYSW") (footprint "random keyboard parts:Empty")
    )
    (path "/d6f0480d-3f7e-44ba-83a1-ad90e747ba87"
      (reference "K6") (unit 1) (value "KEYSW") (footprint "random keyboard parts:Empty")
    )
    (path "/93fefc6f-0fde-42e3-af0f-51b29c14784e"
      (reference "K7") (unit 1) (value "KEYSW") (footprint "random keyboard parts:Empty")
    )
    (path "/cd4e4ff0-7922-4c04-a38c-05c4a1a1fdad"
      (reference "K8") (unit 1) (value "KEYSW") (footprint "random keyboard parts:Empty")
    )
    (path "/550bcc51-c48e-4d05-836c-f420a7087468"
      (reference "K9") (unit 1) (value "KEYSW") (footprint "random keyboard parts:Empty")
    )
    (path "/8175599d-1908-446e-a7c7-ba4eb9a186d1"
      (reference "K10") (unit 1) (value "KEYSW") (footprint "random keyboard parts:Empty")
    )
    (path "/c0d7c9e1-d3b9-44db-9438-a6ea0168632b"
      (reference "K11") (unit 1) (value "KEYSW") (footprint "random keyboard parts:Empty")
    )
    (path "/e9f5dedb-d5d9-43ea-b1b2-09ddba19bc96"
      (reference "K12") (unit 1) (value "KEYSW") (footprint "random keyboard parts:Empty")
    )
    (path "/95343729-a28c-4839-a842-c10e4dca8c81"
      (reference "K13") (unit 1) (value "KEYSW") (footprint "random keyboard parts:Empty")
    )
    (path "/b9097ddb-0e93-4d57-bdc5-44b5a1de6c1b"
      (reference "K14") (unit 1) (value "KEYSW") (footprint "random keyboard parts:Empty")
    )
    (path "/4206f408-e29e-4b76-b563-a98a05f55a0b"
      (reference "K15") (unit 1) (value "KEYSW") (footprint "random keyboard parts:Empty")
    )
    (path "/e1476176-d274-4edf-9145-2f2e6d4364da"
      (reference "K16") (unit 1) (value "KEYSW") (footprint "random keyboard parts:Empty")
    )
    (path "/d2ce21e9-af6f-4b52-9089-cd715849d5e6"
      (reference "K17") (unit 1) (value "KEYSW") (footprint "random keyboard parts:Empty")
    )
    (path "/94bfad75-7759-47b1-8f73-6c51d6f2c508"
      (reference "R1") (unit 1) (value "4.7k") (footprint "random keyboard parts:Empty")
    )
    (path "/d6844102-7c54-41e5-b644-18d9024833a1"
      (reference "R2") (unit 1) (value "4.7k") (footprint "random keyboard parts:Empty")
    )
    (path "/dbfd6c33-d601-4af4-9326-2f2b4fe3615f"
      (reference "SW1") (unit 1) (value "SW_PUSH") (footprint "random keyboard parts:Empty")
    )
    (path "/3c497d98-a75a-4ec9-97c0-8c92306ac50e"
      (reference "U1") (unit 1) (value "ELITE-C") (footprint "random keyboard parts:Empty")
    )
    (path "/304f43aa-7b7f-4962-8823-8b6534f0c02c"
      (reference "U2") (unit 1) (value "TRRS") (footprint "random keyboard parts:Empty")
    )
  )
)
