(kicad_pcb (version 20221231) (generator pcbnew)

  (general
    (thickness 1.6)
  )

  (paper "A5")
  (layers
    (0 "F.Cu" signal)
    (31 "B.Cu" signal)
    (32 "B.Adhes" user "B.Adhesive")
    (33 "F.Adhes" user "F.Adhesive")
    (34 "B.Paste" user)
    (35 "F.Paste" user)
    (36 "B.SilkS" user "B.Silkscreen")
    (37 "F.SilkS" user "F.Silkscreen")
    (38 "B.Mask" user)
    (39 "F.Mask" user)
    (40 "Dwgs.User" user "User.Drawings")
    (41 "Cmts.User" user "User.Comments")
    (42 "Eco1.User" user "User.Eco1")
    (43 "Eco2.User" user "User.Eco2")
    (44 "Edge.Cuts" user)
    (45 "Margin" user)
    (46 "B.CrtYd" user "B.Courtyard")
    (47 "F.CrtYd" user "F.Courtyard")
    (48 "B.Fab" user)
    (49 "F.Fab" user)
    (50 "User.1" user)
    (51 "User.2" user)
    (52 "User.3" user)
    (53 "User.4" user)
    (54 "User.5" user)
    (55 "User.6" user)
    (56 "User.7" user)
    (57 "User.8" user)
    (58 "User.9" user)
  )

  (setup
    (stackup
      (layer "F.SilkS" (type "Top Silk Screen"))
      (layer "F.Paste" (type "Top Solder Paste"))
      (layer "F.Mask" (type "Top Solder Mask") (color "Green") (thickness 0.01))
      (layer "F.Cu" (type "copper") (thickness 0.035))
      (layer "dielectric 1" (type "core") (thickness 1.51) (material "FR4") (epsilon_r 4.5) (loss_tangent 0.02))
      (layer "B.Cu" (type "copper") (thickness 0.035))
      (layer "B.Mask" (type "Bottom Solder Mask") (color "Green") (thickness 0.01))
      (layer "B.Paste" (type "Bottom Solder Paste"))
      (layer "B.SilkS" (type "Bottom Silk Screen"))
      (copper_finish "None")
      (dielectric_constraints no)
    )
    (pad_to_mask_clearance 0)
    (pcbplotparams
      (layerselection 0x00010fc_ffffffff)
      (disableapertmacros false)
      (usegerberextensions true)
      (usegerberattributes false)
      (usegerberadvancedattributes true)
      (creategerberjobfile true)
      (dashed_line_dash_ratio 12.000000)
      (dashed_line_gap_ratio 3.000000)
      (svguseinch false)
      (svgprecision 6)
      (excludeedgelayer true)
      (plotframeref false)
      (viasonmask false)
      (mode 1)
      (useauxorigin false)
      (hpglpennumber 1)
      (hpglpenspeed 20)
      (hpglpendiameter 15.000000)
      (dxfpolygonmode true)
      (dxfimperialunits true)
      (dxfusepcbnewfont true)
      (psnegative false)
      (psa4output false)
      (plotreference true)
      (plotvalue true)
      (plotinvisibletext false)
      (sketchpadsonfab false)
      (subtractmaskfromsilk true)
      (outputformat 1)
      (mirror false)
      (drillshape 0)
      (scaleselection 1)
      (outputdirectory "./gerber")
    )
  )

  (net 0 "")

  (footprint "random keyboard parts:Empty" locked (layer "F.Cu")
    (tedit 618848ED) (tstamp 0fbec3a1-bef2-46aa-aaff-fff76fef9797)
    (at 152.107483 63.830017)
    (property "Sheetfile" "alt34_bottom.kicad_sch")
    (property "Sheetname" "")
    (path "/8175599d-1908-446e-a7c7-ba4eb9a186d1")
    (fp_text reference "K10" (at 0 -0.5 unlocked) (layer "F.SilkS") hide
      (effects (font (size 1 1) (thickness 0.15)))
      (tstamp b80a955b-199f-4f6e-8bed-e469e4c1b174)
    )
    (fp_text value "KEYSW" (at 0 1 unlocked) (layer "F.Fab") hide
      (effects (font (size 1 1) (thickness 0.15)))
      (tstamp 6416f123-1f79-44f7-8620-4cd1cf4c9aee)
    )
  )

  (footprint "random keyboard parts:Empty" locked (layer "F.Cu")
    (tedit 618848ED) (tstamp 17c3a6aa-597f-4228-9e9f-47ad6baa3e00)
    (at 114.007483 64.880017)
    (property "Sheetfile" "alt34_bottom.kicad_sch")
    (property "Sheetname" "")
    (path "/95343729-a28c-4839-a842-c10e4dca8c81")
    (fp_text reference "K13" (at 0 -0.5 unlocked) (layer "F.SilkS") hide
      (effects (font (size 1 1) (thickness 0.15)))
      (tstamp 4bb9b187-1a2c-4c7d-97ca-65dd1be35845)
    )
    (fp_text value "KEYSW" (at 0 1 unlocked) (layer "F.Fab") hide
      (effects (font (size 1 1) (thickness 0.15)))
      (tstamp 8669b81f-e195-4683-8341-a8cfcbc5db79)
    )
  )

  (footprint "MountingHole:MountingHole_2.2mm_M2_DIN965_Pad" (layer "F.Cu")
    (tedit 56D1B4CB) (tstamp 18b45a78-2b55-4a3c-bdab-07d8ee7b025d)
    (at 114.007483 80.15)
    (descr "Mounting Hole 2.2mm, M2, DIN965")
    (tags "mounting hole 2.2mm m2 din965")
    (attr exclude_from_pos_files exclude_from_bom)
    (fp_text reference "HOLE_M2" (at 0 -2.9) (layer "F.SilkS") hide
      (effects (font (size 1 1) (thickness 0.15)))
      (tstamp cbc1b6c7-7feb-4634-a6c3-0a31cba4476e)
    )
    (fp_text value "" (at 0 2.9) (layer "F.Fab") hide
      (effects (font (size 1 1) (thickness 0.15)))
      (tstamp ff32f818-e0b0-4f0b-8828-fd9bd37f79b3)
    )
    (fp_text user "${REFERENCE}" (at 0.3 0) (layer "F.Fab") hide
      (effects (font (size 1 1) (thickness 0.15)))
      (tstamp 3955af19-74a1-431b-a354-69b0a6ea8ddf)
    )
    (fp_circle (center 0 0) (end 1.9 0)
      (stroke (width 0.15) (type solid)) (fill none) (layer "Cmts.User") (tstamp ab96bcbf-c755-42b1-81c6-383b88ea4105))
    (fp_circle (center 0 0) (end 2.15 0)
      (stroke (width 0.05) (type solid)) (fill none) (layer "F.CrtYd") (tstamp 3baf6be8-f9c9-4b7d-b55d-17503ca17ecc))
    (pad "1" thru_hole circle locked (at 0 0) (size 3.8 3.8) (drill 2.2) (layers *.Cu *.Mask) (tstamp 36639776-c9b1-462f-82df-bde8474ec7d6))
  )

  (footprint "random keyboard parts:Empty" locked (layer "F.Cu")
    (tedit 618848ED) (tstamp 254bac1c-e8cd-4749-9f09-fd42c6faa874)
    (at 152.107483 82.880017)
    (property "Sheetfile" "alt34_bottom.kicad_sch")
    (property "Sheetname" "")
    (path "/4206f408-e29e-4b76-b563-a98a05f55a0b")
    (fp_text reference "K15" (at 0 -0.5 unlocked) (layer "F.SilkS") hide
      (effects (font (size 1 1) (thickness 0.15)))
      (tstamp 5af193cd-3181-47ac-a037-c4558666d44c)
    )
    (fp_text value "KEYSW" (at 0 1 unlocked) (layer "F.Fab") hide
      (effects (font (size 1 1) (thickness 0.15)))
      (tstamp dd25bc06-6dd6-4fa7-bafd-2153707930bf)
    )
  )

  (footprint "random keyboard parts:Empty" locked (layer "F.Cu")
    (tedit 618848ED) (tstamp 259a2b88-75fd-4450-a46c-433aa1bdcc1c)
    (at 94.957483 32.280017)
    (property "Sheetfile" "alt34_bottom.kicad_sch")
    (property "Sheetname" "")
    (path "/c6a194f5-dd4d-41b9-bd84-f6caa8fdca48")
    (fp_text reference "K2" (at 0 -0.5 unlocked) (layer "F.SilkS") hide
      (effects (font (size 1 1) (thickness 0.15)))
      (tstamp 11e94521-54a8-4ed7-b61f-18f739ef7755)
    )
    (fp_text value "KEYSW" (at 0 1 unlocked) (layer "F.Fab") hide
      (effects (font (size 1 1) (thickness 0.15)))
      (tstamp 75c16ce2-830e-4f4e-b179-25fb1960729c)
    )
  )

  (footprint "random keyboard parts:Empty" locked (layer "F.Cu")
    (tedit 618848ED) (tstamp 33623d4f-bee5-44aa-85b6-8d1adf39c9e6)
    (at 152.107483 44.780017)
    (property "Sheetfile" "alt34_bottom.kicad_sch")
    (property "Sheetname" "")
    (path "/06243ab5-cbc9-4df9-8c0c-989c38eeb3b6")
    (fp_text reference "K5" (at 0 -0.5 unlocked) (layer "F.SilkS") hide
      (effects (font (size 1 1) (thickness 0.15)))
      (tstamp 0b6174aa-d4bf-4976-8140-b3512a844a14)
    )
    (fp_text value "KEYSW" (at 0 1 unlocked) (layer "F.Fab") hide
      (effects (font (size 1 1) (thickness 0.15)))
      (tstamp f8759c25-fc3a-47d9-94d8-f602584d0aae)
    )
  )

  (footprint "MountingHole:MountingHole_2.2mm_M2_DIN965_Pad" (layer "F.Cu")
    (tedit 56D1B4CB) (tstamp 353f38e5-d43b-477d-801c-d20b6a6a12bf)
    (at 143.582483 73.367517)
    (descr "Mounting Hole 2.2mm, M2, DIN965")
    (tags "mounting hole 2.2mm m2 din965")
    (attr exclude_from_pos_files exclude_from_bom)
    (fp_text reference "HOLE_M2" (at 0 -2.9) (layer "F.SilkS") hide
      (effects (font (size 1 1) (thickness 0.15)))
      (tstamp b04a9704-4765-4427-86f1-469168572521)
    )
    (fp_text value "" (at 0 2.9) (layer "F.Fab") hide
      (effects (font (size 1 1) (thickness 0.15)))
      (tstamp bc8681ba-b9ad-4ae0-adfc-df3ee29d674f)
    )
    (fp_text user "${REFERENCE}" (at 0.3 0) (layer "F.Fab") hide
      (effects (font (size 1 1) (thickness 0.15)))
      (tstamp 82018df9-2b90-41f6-9a21-a1536651b6cf)
    )
    (fp_circle (center 0 0) (end 1.9 0)
      (stroke (width 0.15) (type solid)) (fill none) (layer "Cmts.User") (tstamp 3a5548f2-b5c1-45dc-a0d7-7336d77166ff))
    (fp_circle (center 0 0) (end 2.15 0)
      (stroke (width 0.05) (type solid)) (fill none) (layer "F.CrtYd") (tstamp bbfaa55f-7033-4466-942b-aabe2b314b76))
    (pad "1" thru_hole circle locked (at 0 0) (size 3.8 3.8) (drill 2.2) (layers *.Cu *.Mask) (tstamp 4cd156d3-5b4b-44d8-8e69-ed87f780a4dc))
  )

  (footprint "random keyboard parts:Empty" locked (layer "F.Cu")
    (tedit 618848ED) (tstamp 3ff04797-74a2-4fc5-8365-ab3696c30d1d)
    (at 85.882483 92.367517 15)
    (property "Sheetfile" "alt34_bottom.kicad_sch")
    (property "Sheetname" "")
    (path "/d2ce21e9-af6f-4b52-9089-cd715849d5e6")
    (fp_text reference "K17" (at 0 -0.5 15 unlocked) (layer "F.SilkS") hide
      (effects (font (size 1 1) (thickness 0.15)))
      (tstamp a1b9efa0-68e6-444d-a374-b6c7b6767c54)
    )
    (fp_text value "KEYSW" (at 0 1 15 unlocked) (layer "F.Fab") hide
      (effects (font (size 1 1) (thickness 0.15)))
      (tstamp 793a133e-4334-4788-967d-469e9630d03e)
    )
  )

  (footprint "random keyboard parts:Empty" locked (layer "F.Cu")
    (tedit 618848ED) (tstamp 45b51638-7122-4bc2-9f96-c1f2da3f6e18)
    (at 133.057483 51.830017)
    (property "Sheetfile" "alt34_bottom.kicad_sch")
    (property "Sheetname" "")
    (path "/550bcc51-c48e-4d05-836c-f420a7087468")
    (fp_text reference "K9" (at 0 -0.5 unlocked) (layer "F.SilkS") hide
      (effects (font (size 1 1) (thickness 0.15)))
      (tstamp ad662e15-61ac-412c-9df4-bae4936674bf)
    )
    (fp_text value "KEYSW" (at 0 1 unlocked) (layer "F.Fab") hide
      (effects (font (size 1 1) (thickness 0.15)))
      (tstamp 7efd7345-d7b0-4e7f-ab94-0dc76599a54a)
    )
  )

  (footprint "random keyboard parts:Empty" locked (layer "F.Cu")
    (tedit 618848ED) (tstamp 4db113b1-511d-4f8e-bbc9-c6dce612c269)
    (at 75.907483 34.780017)
    (property "Sheetfile" "alt34_bottom.kicad_sch")
    (property "Sheetname" "")
    (path "/9eb63512-05c8-429b-ab40-ef90044e8e31")
    (fp_text reference "K1" (at 0 -0.5 unlocked) (layer "F.SilkS") hide
      (effects (font (size 1 1) (thickness 0.15)))
      (tstamp 19ace8da-9a4a-4615-b486-2a60611b329b)
    )
    (fp_text value "KEYSW" (at 0 1 unlocked) (layer "F.Fab") hide
      (effects (font (size 1 1) (thickness 0.15)))
      (tstamp 086721ac-f2c4-4daf-8783-6640c1edfba1)
    )
  )

  (footprint "random keyboard parts:Empty" locked (layer "F.Cu")
    (tedit 618848ED) (tstamp 4ecfa082-22fc-492f-ad3c-0e68ca808ba0)
    (at 94.957483 70.380017)
    (property "Sheetfile" "alt34_bottom.kicad_sch")
    (property "Sheetname" "")
    (path "/e9f5dedb-d5d9-43ea-b1b2-09ddba19bc96")
    (fp_text reference "K12" (at 0 -0.5 unlocked) (layer "F.SilkS") hide
      (effects (font (size 1 1) (thickness 0.15)))
      (tstamp 31ae17a4-c7c9-49e1-b5f6-d310cbd36146)
    )
    (fp_text value "KEYSW" (at 0 1 unlocked) (layer "F.Fab") hide
      (effects (font (size 1 1) (thickness 0.15)))
      (tstamp 9cd2aa18-2f8b-4c65-beff-e720317c7c56)
    )
  )

  (footprint "MountingHole:MountingHole_2.2mm_M2_DIN965_Pad" (layer "F.Cu")
    (tedit 56D1B4CB) (tstamp 7401ca9d-4ee5-4059-991a-865760db8e71)
    (at 143.582483 54.292517)
    (descr "Mounting Hole 2.2mm, M2, DIN965")
    (tags "mounting hole 2.2mm m2 din965")
    (attr exclude_from_pos_files exclude_from_bom)
    (fp_text reference "HOLE_M2" (at 0 -2.9) (layer "F.SilkS") hide
      (effects (font (size 1 1) (thickness 0.15)))
      (tstamp ac7e6ac0-f35a-4058-8ec1-b9e4f551c4f8)
    )
    (fp_text value "" (at 0 2.9) (layer "F.Fab") hide
      (effects (font (size 1 1) (thickness 0.15)))
      (tstamp d2cfbc18-cea6-4a7a-a90d-b32a1533e4ed)
    )
    (fp_text user "${REFERENCE}" (at 0.3 0) (layer "F.Fab") hide
      (effects (font (size 1 1) (thickness 0.15)))
      (tstamp a2a9608b-aed9-48cc-89a7-4a250306dfd3)
    )
    (fp_circle (center 0 0) (end 1.9 0)
      (stroke (width 0.15) (type solid)) (fill none) (layer "Cmts.User") (tstamp bada5181-e1e2-4d47-b674-64f8226e5e92))
    (fp_circle (center 0 0) (end 2.15 0)
      (stroke (width 0.05) (type solid)) (fill none) (layer "F.CrtYd") (tstamp 0a96b14e-824d-4cf8-8ca0-a61f3aab2c3d))
    (pad "1" thru_hole circle locked (at 0 0) (size 3.8 3.8) (drill 2.2) (layers *.Cu *.Mask) (tstamp 291142d4-2294-498b-87ac-f6ccaca291f6))
  )

  (footprint "random keyboard parts:Empty" locked (layer "F.Cu")
    (tedit 618848ED) (tstamp 941407fb-1ad9-4a4a-8de4-9189b12402fb)
    (at 133.057483 70.880017)
    (property "Sheetfile" "alt34_bottom.kicad_sch")
    (property "Sheetname" "")
    (path "/b9097ddb-0e93-4d57-bdc5-44b5a1de6c1b")
    (fp_text reference "K14" (at 0 -0.5 unlocked) (layer "F.SilkS") hide
      (effects (font (size 1 1) (thickness 0.15)))
      (tstamp af5682ab-090a-4e62-9920-a423d45a555b)
    )
    (fp_text value "KEYSW" (at 0 1 unlocked) (layer "F.Fab") hide
      (effects (font (size 1 1) (thickness 0.15)))
      (tstamp d5d7642d-805a-4cdc-9ee8-1de138e0ee9b)
    )
  )

  (footprint "MountingHole:MountingHole_2.2mm_M2_DIN965_Pad" (layer "F.Cu")
    (tedit 56D1B4CB) (tstamp a026d303-d7b4-4ceb-af67-f2b2754ec3a3)
    (at 72.632483 88.367517)
    (descr "Mounting Hole 2.2mm, M2, DIN965")
    (tags "mounting hole 2.2mm m2 din965")
    (attr exclude_from_pos_files exclude_from_bom)
    (fp_text reference "HOLE_M2" (at 0 -2.9) (layer "F.SilkS") hide
      (effects (font (size 1 1) (thickness 0.15)))
      (tstamp c4e1155b-e4da-4f44-a754-aab8c60bdbf4)
    )
    (fp_text value "" (at 0 2.9) (layer "F.Fab") hide
      (effects (font (size 1 1) (thickness 0.15)))
      (tstamp 944d7add-b2f4-4676-92da-a65c7fe35a78)
    )
    (fp_text user "${REFERENCE}" (at 0.3 0) (layer "F.Fab") hide
      (effects (font (size 1 1) (thickness 0.15)))
      (tstamp 745b6e11-0334-4099-9a35-114fdafe907c)
    )
    (fp_circle (center 0 0) (end 1.9 0)
      (stroke (width 0.15) (type solid)) (fill none) (layer "Cmts.User") (tstamp b2d22448-94d7-49fd-b465-b0877da139c2))
    (fp_circle (center 0 0) (end 2.15 0)
      (stroke (width 0.05) (type solid)) (fill none) (layer "F.CrtYd") (tstamp 380e2d67-b97d-4dd1-a788-4c7bc8a72dc5))
    (pad "1" thru_hole circle locked (at 0 0) (size 3.8 3.8) (drill 2.2) (layers *.Cu *.Mask) (tstamp 9c4487d4-550d-4475-bf5b-b17151541bca))
  )

  (footprint "random keyboard parts:Empty" (layer "F.Cu")
    (tedit 618848ED) (tstamp a1bb9995-760a-4448-b734-37c8fd4936f8)
    (at 47.225 81 90)
    (property "Sheetfile" "alt34_bottom.kicad_sch")
    (property "Sheetname" "")
    (path "/304f43aa-7b7f-4962-8823-8b6534f0c02c")
    (fp_text reference "U2" (at 0 -0.5 90 unlocked) (layer "F.SilkS") hide
      (effects (font (size 1 1) (thickness 0.15)))
      (tstamp ea7fc50f-529d-4e04-9170-41a93f175d1b)
    )
    (fp_text value "TRRS" (at 0 1 90 unlocked) (layer "F.Fab") hide
      (effects (font (size 1 1) (thickness 0.15)))
      (tstamp abf9f33b-47d9-4a50-8c4e-05764de53ebb)
    )
  )

  (footprint "random keyboard parts:Empty" locked (layer "F.Cu")
    (tedit 618848ED) (tstamp aa7f64df-e48b-4e1f-b838-c5e20a256784)
    (at 75.907483 72.880017)
    (property "Sheetfile" "alt34_bottom.kicad_sch")
    (property "Sheetname" "")
    (path "/c0d7c9e1-d3b9-44db-9438-a6ea0168632b")
    (fp_text reference "K11" (at 0 -0.5 unlocked) (layer "F.SilkS") hide
      (effects (font (size 1 1) (thickness 0.15)))
      (tstamp e5f812a1-a8ef-4994-8478-175eacc1b6c8)
    )
    (fp_text value "KEYSW" (at 0 1 unlocked) (layer "F.Fab") hide
      (effects (font (size 1 1) (thickness 0.15)))
      (tstamp 68ba2cb7-837d-4c62-8b54-80c15a37fc0b)
    )
  )

  (footprint "random keyboard parts:Empty" locked (layer "F.Cu")
    (tedit 618848ED) (tstamp abcd8a91-08d2-4dba-aabc-3170de67d90a)
    (at 114.007483 45.830017)
    (property "Sheetfile" "alt34_bottom.kicad_sch")
    (property "Sheetname" "")
    (path "/cd4e4ff0-7922-4c04-a38c-05c4a1a1fdad")
    (fp_text reference "K8" (at 0 -0.5 unlocked) (layer "F.SilkS") hide
      (effects (font (size 1 1) (thickness 0.15)))
      (tstamp c6aba89d-8ce3-44fc-8fd4-f81c785db1f8)
    )
    (fp_text value "KEYSW" (at 0 1 unlocked) (layer "F.Fab") hide
      (effects (font (size 1 1) (thickness 0.15)))
      (tstamp a002ab3c-3aba-42d0-8451-34dea7e062bb)
    )
  )

  (footprint "MountingHole:MountingHole_2.2mm_M2_DIN965_Pad" (layer "F.Cu")
    (tedit 56D1B4CB) (tstamp cf454b89-ae15-41aa-8c21-faf5a085bce2)
    (at 75.907483 44.305017)
    (descr "Mounting Hole 2.2mm, M2, DIN965")
    (tags "mounting hole 2.2mm m2 din965")
    (attr exclude_from_pos_files exclude_from_bom)
    (fp_text reference "HOLE_M2" (at 0 -2.9) (layer "F.SilkS") hide
      (effects (font (size 1 1) (thickness 0.15)))
      (tstamp 2671a292-71c8-42ae-ab33-2eb65440c252)
    )
    (fp_text value "" (at 0 2.9) (layer "F.Fab") hide
      (effects (font (size 1 1) (thickness 0.15)))
      (tstamp 3c1ff06b-3976-4d27-bbee-685772f5cac0)
    )
    (fp_text user "${REFERENCE}" (at 0.3 0) (layer "F.Fab") hide
      (effects (font (size 1 1) (thickness 0.15)))
      (tstamp 5a3917a2-7e2a-4845-ac38-71ed8d9225b4)
    )
    (fp_circle (center 0 0) (end 1.9 0)
      (stroke (width 0.15) (type solid)) (fill none) (layer "Cmts.User") (tstamp 17ae0117-6efa-4f76-a88e-a2f4ecafe65e))
    (fp_circle (center 0 0) (end 2.15 0)
      (stroke (width 0.05) (type solid)) (fill none) (layer "F.CrtYd") (tstamp b52f29e6-ed39-4c84-8589-e36a0ed33fd2))
    (pad "1" thru_hole circle locked (at 0 0) (size 3.8 3.8) (drill 2.2) (layers *.Cu *.Mask) (tstamp 05e32025-faee-471b-9d80-0727ee4c671a))
  )

  (footprint "random keyboard parts:Empty" locked (layer "F.Cu")
    (tedit 618848ED) (tstamp d0d8786b-e70f-4b4c-b30e-a2067cee682e)
    (at 114.007483 26.780017)
    (property "Sheetfile" "alt34_bottom.kicad_sch")
    (property "Sheetname" "")
    (path "/f87cd20f-c8a7-46fb-98d7-d1e0d83f4365")
    (fp_text reference "K3" (at 0 -0.5 unlocked) (layer "F.SilkS") hide
      (effects (font (size 1 1) (thickness 0.15)))
      (tstamp 96a6c6fe-aefb-4918-9074-1d854f9bcf19)
    )
    (fp_text value "KEYSW" (at 0 1 unlocked) (layer "F.Fab") hide
      (effects (font (size 1 1) (thickness 0.15)))
      (tstamp 2126d330-098a-4697-8ff9-bdd1ed112d95)
    )
  )

  (footprint "random keyboard parts:Empty" locked (layer "F.Cu")
    (tedit 618848ED) (tstamp e56d8ffd-b53c-456a-bd55-4e060c718d47)
    (at 133.057483 32.780017)
    (property "Sheetfile" "alt34_bottom.kicad_sch")
    (property "Sheetname" "")
    (path "/3aeb9419-c537-4e24-a83d-067dce29e7a9")
    (fp_text reference "K4" (at 0 -0.5 unlocked) (layer "F.SilkS") hide
      (effects (font (size 1 1) (thickness 0.15)))
      (tstamp ae7e0e9a-5224-4d44-9f3a-c751412f31c5)
    )
    (fp_text value "KEYSW" (at 0 1 unlocked) (layer "F.Fab") hide
      (effects (font (size 1 1) (thickness 0.15)))
      (tstamp 16f5c63f-de14-4ff9-87c5-e3f0e053e2fc)
    )
  )

  (footprint "random keyboard parts:Empty" locked (layer "F.Cu")
    (tedit 618848ED) (tstamp ed9f6212-f780-4713-b825-de97860e2ff8)
    (at 66.082483 100.567517 30)
    (property "Sheetfile" "alt34_bottom.kicad_sch")
    (property "Sheetname" "")
    (path "/e1476176-d274-4edf-9145-2f2e6d4364da")
    (fp_text reference "K16" (at 0 -0.5 30 unlocked) (layer "F.SilkS") hide
      (effects (font (size 1 1) (thickness 0.15)))
      (tstamp e4d9202b-c5cf-42b6-9687-45ad55168795)
    )
    (fp_text value "KEYSW" (at 0 1 30 unlocked) (layer "F.Fab") hide
      (effects (font (size 1 1) (thickness 0.15)))
      (tstamp 4b2b662b-566e-4b5d-80dc-4e6c63e04e7c)
    )
  )

  (footprint "random keyboard parts:Empty" locked (layer "F.Cu")
    (tedit 618848ED) (tstamp f030a57a-43e8-4cfc-bb94-e35096f0d687)
    (at 94.957483 51.330017)
    (property "Sheetfile" "alt34_bottom.kicad_sch")
    (property "Sheetname" "")
    (path "/93fefc6f-0fde-42e3-af0f-51b29c14784e")
    (fp_text reference "K7" (at 0 -0.5 unlocked) (layer "F.SilkS") hide
      (effects (font (size 1 1) (thickness 0.15)))
      (tstamp bc0dcc62-b754-47f2-b46f-5fd9e226a010)
    )
    (fp_text value "KEYSW" (at 0 1 unlocked) (layer "F.Fab") hide
      (effects (font (size 1 1) (thickness 0.15)))
      (tstamp 97155478-38c2-4646-8a6d-d01897fb1cbd)
    )
  )

  (footprint "random keyboard parts:Empty" (layer "F.Cu")
    (tedit 618848ED) (tstamp fd72cc36-aa10-4c35-bba6-d5dc579bd919)
    (at 59.436666 86.506627 -150)
    (property "Sheetfile" "alt34_bottom.kicad_sch")
    (property "Sheetname" "")
    (path "/dbfd6c33-d601-4af4-9326-2f2b4fe3615f")
    (fp_text reference "SW1" (at 0 -0.5 -150 unlocked) (layer "F.SilkS") hide
      (effects (font (size 1 1) (thickness 0.15)))
      (tstamp d6079afe-c4b5-4320-a7dc-3b311fdff001)
    )
    (fp_text value "SW_PUSH" (at 0 1 -150 unlocked) (layer "F.Fab") hide
      (effects (font (size 1 1) (thickness 0.15)))
      (tstamp a139e51e-3080-4e50-be76-589deeb2a3a6)
    )
  )

  (footprint "random keyboard parts:Empty" (layer "F.Cu")
    (tedit 618848ED) (tstamp ff78ee4b-e61c-4a65-99fe-0b7c3c052a16)
    (at 75.907483 53.830017)
    (property "Sheetfile" "alt34_bottom.kicad_sch")
    (property "Sheetname" "")
    (path "/d6f0480d-3f7e-44ba-83a1-ad90e747ba87")
    (fp_text reference "K6" (at 0 -0.5 unlocked) (layer "F.SilkS") hide
      (effects (font (size 1 1) (thickness 0.15)))
      (tstamp 3b00efef-e8e5-4e31-9f59-137c5e6cb068)
    )
    (fp_text value "KEYSW" (at 0 1 unlocked) (layer "F.Fab") hide
      (effects (font (size 1 1) (thickness 0.15)))
      (tstamp 9c488b84-60db-4f03-9a20-423cdb00ed22)
    )
  )

  (footprint "random keyboard parts:Empty" (layer "B.Cu")
    (tedit 618848ED) (tstamp 148b5fa4-53b9-4fa5-a8a7-b0e22f1fbf75)
    (at 76.107483 78.380017)
    (property "Sheetfile" "alt34_bottom.kicad_sch")
    (property "Sheetname" "")
    (path "/7d363c93-09f3-4970-984e-f219295c0651")
    (fp_text reference "D11" (at 0 0.5 180 unlocked) (layer "B.SilkS") hide
      (effects (font (size 1 1) (thickness 0.15)) (justify mirror))
      (tstamp 167630e2-6087-4168-995b-f9c6808d0952)
    )
    (fp_text value "D" (at 0 -1 180 unlocked) (layer "B.Fab") hide
      (effects (font (size 1 1) (thickness 0.15)) (justify mirror))
      (tstamp b0e9f1b0-e1cc-4601-a50a-1eaa3f511428)
    )
  )

  (footprint "random keyboard parts:Empty" (layer "B.Cu")
    (tedit 618848ED) (tstamp 30a1f474-8127-4642-a4c6-92b7e8f0df24)
    (at 56.132483 62.267517 -90)
    (property "Sheetfile" "alt34_bottom.kicad_sch")
    (property "Sheetname" "")
    (path "/3c497d98-a75a-4ec9-97c0-8c92306ac50e")
    (fp_text reference "U1" (at 0 0.5 90 unlocked) (layer "B.SilkS") hide
      (effects (font (size 1 1) (thickness 0.15)) (justify mirror))
      (tstamp 53aec7b3-9d45-453f-b76b-ac9c4bdb23c7)
    )
    (fp_text value "ELITE-C" (at 0 -1 90 unlocked) (layer "B.Fab") hide
      (effects (font (size 1 1) (thickness 0.15)) (justify mirror))
      (tstamp 211ae465-e3d1-4893-ace8-2a286d63d1d9)
    )
  )

  (footprint "random keyboard parts:Empty" (layer "B.Cu")
    (tedit 618848ED) (tstamp 30f7a720-0b6d-46bd-93ed-e9918b4a248a)
    (at 95.157483 37.780017)
    (property "Sheetfile" "alt34_bottom.kicad_sch")
    (property "Sheetname" "")
    (path "/9ca66732-1f4e-46ae-af17-b606358de06a")
    (fp_text reference "D2" (at 0 0.5 180 unlocked) (layer "B.SilkS") hide
      (effects (font (size 1 1) (thickness 0.15)) (justify mirror))
      (tstamp 1cb08afa-3137-4ae7-a33e-6592da14da3d)
    )
    (fp_text value "D" (at 0 -1 180 unlocked) (layer "B.Fab") hide
      (effects (font (size 1 1) (thickness 0.15)) (justify mirror))
      (tstamp 4c8e89b8-16cd-4f16-a05a-b1ff34ecdcee)
    )
  )

  (footprint "random keyboard parts:Empty" (layer "B.Cu")
    (tedit 618848ED) (tstamp 3366d958-9cdb-4539-9689-b19174638295)
    (at 95.157483 56.830017)
    (property "Sheetfile" "alt34_bottom.kicad_sch")
    (property "Sheetname" "")
    (path "/9568fe1e-4884-4d3f-8141-2e4a907e0714")
    (fp_text reference "D7" (at 0 0.5 180 unlocked) (layer "B.SilkS") hide
      (effects (font (size 1 1) (thickness 0.15)) (justify mirror))
      (tstamp 7f3d56b1-bbfd-4d61-962b-fb311971fc48)
    )
    (fp_text value "D" (at 0 -1 180 unlocked) (layer "B.Fab") hide
      (effects (font (size 1 1) (thickness 0.15)) (justify mirror))
      (tstamp 18645fa6-c2f7-4ecf-ab72-58ca2ac6ea7c)
    )
  )

  (footprint "random keyboard parts:Empty" (layer "B.Cu")
    (tedit 618848ED) (tstamp 41e02e19-0514-458d-90e8-5bbe8315a36a)
    (at 95.157483 75.880017)
    (property "Sheetfile" "alt34_bottom.kicad_sch")
    (property "Sheetname" "")
    (path "/0771ad4a-7202-442f-a5a2-2e30540f4099")
    (fp_text reference "D12" (at 0 0.5 180 unlocked) (layer "B.SilkS") hide
      (effects (font (size 1 1) (thickness 0.15)) (justify mirror))
      (tstamp e1285351-3711-4086-b30e-0911af93d78c)
    )
    (fp_text value "D" (at 0 -1 180 unlocked) (layer "B.Fab") hide
      (effects (font (size 1 1) (thickness 0.15)) (justify mirror))
      (tstamp e8bfbf26-e794-469e-8694-e87a67730626)
    )
  )

  (footprint "random keyboard parts:Empty" (layer "B.Cu")
    (tedit 618848ED) (tstamp 4e86dcc0-2e17-4a16-880d-651cb6358504)
    (at 56.132483 73.175)
    (property "Sheetfile" "alt34_bottom.kicad_sch")
    (property "Sheetname" "")
    (path "/94bfad75-7759-47b1-8f73-6c51d6f2c508")
    (fp_text reference "R1" (at 0 0.5 180 unlocked) (layer "B.SilkS") hide
      (effects (font (size 1 1) (thickness 0.15)) (justify mirror))
      (tstamp fd59bb18-6ea9-40e5-8c2e-707a0dbf3dc7)
    )
    (fp_text value "4.7k" (at 0 -1 180 unlocked) (layer "B.Fab") hide
      (effects (font (size 1 1) (thickness 0.15)) (justify mirror))
      (tstamp e7caf116-5a67-4ff4-9e06-73653f5fc9ed)
    )
  )

  (footprint "random keyboard parts:Empty" (layer "B.Cu")
    (tedit 618848ED) (tstamp 561616ad-6013-48e7-aab5-016c94c8e20a)
    (at 114.207483 70.380017)
    (property "Sheetfile" "alt34_bottom.kicad_sch")
    (property "Sheetname" "")
    (path "/1d9c36de-0290-41f7-aba8-dc73a87691be")
    (fp_text reference "D13" (at 0 0.5 180 unlocked) (layer "B.SilkS") hide
      (effects (font (size 1 1) (thickness 0.15)) (justify mirror))
      (tstamp 70e0e57a-9351-4a12-93f1-274c1bc09bd0)
    )
    (fp_text value "D" (at 0 -1 180 unlocked) (layer "B.Fab") hide
      (effects (font (size 1 1) (thickness 0.15)) (justify mirror))
      (tstamp 8b6df56d-9f5b-4697-b1a0-4a34a59b6a7b)
    )
  )

  (footprint "random keyboard parts:Empty" (layer "B.Cu")
    (tedit 618848ED) (tstamp 6056fae0-ad03-4293-bb2e-ac743840e88d)
    (at 69.005688 105.230657 30)
    (property "Sheetfile" "alt34_bottom.kicad_sch")
    (property "Sheetname" "")
    (path "/eff90bac-aebc-4ce5-8103-c07ffccf89f5")
    (fp_text reference "D16" (at 0 0.5 210 unlocked) (layer "B.SilkS") hide
      (effects (font (size 1 1) (thickness 0.15)) (justify mirror))
      (tstamp 07ef7515-17c0-414c-8b11-6137f1aca93d)
    )
    (fp_text value "D" (at 0 -1 210 unlocked) (layer "B.Fab") hide
      (effects (font (size 1 1) (thickness 0.15)) (justify mirror))
      (tstamp 6337e825-934e-4ed3-9fe6-03db3df8c6b0)
    )
  )

  (footprint "random keyboard parts:Empty" (layer "B.Cu")
    (tedit 618848ED) (tstamp 6adf15de-5182-4dd9-beae-9615a4873848)
    (at 56.132483 70)
    (property "Sheetfile" "alt34_bottom.kicad_sch")
    (property "Sheetname" "")
    (path "/d6844102-7c54-41e5-b644-18d9024833a1")
    (fp_text reference "R2" (at 0 0.5 180 unlocked) (layer "B.SilkS") hide
      (effects (font (size 1 1) (thickness 0.15)) (justify mirror))
      (tstamp ef7af501-fca8-4cf1-9ea6-bf0c21082410)
    )
    (fp_text value "4.7k" (at 0 -1 180 unlocked) (layer "B.Fab") hide
      (effects (font (size 1 1) (thickness 0.15)) (justify mirror))
      (tstamp 51754d85-ff22-4b36-87c2-0329798cd8e6)
    )
  )

  (footprint "random keyboard parts:Empty" (layer "B.Cu")
    (tedit 618848ED) (tstamp 83c287f7-aa7b-48c0-9c7a-5a5bff8e09cb)
    (at 76.107483 40.280017)
    (property "Sheetfile" "alt34_bottom.kicad_sch")
    (property "Sheetname" "")
    (path "/b3adb5bf-d879-45f4-a5ee-d136e833e17d")
    (fp_text reference "D1" (at 0 0.5 180 unlocked) (layer "B.SilkS") hide
      (effects (font (size 1 1) (thickness 0.15)) (justify mirror))
      (tstamp 7c6ab538-d7ed-4588-ac3b-e86ee2c3d349)
    )
    (fp_text value "D" (at 0 -1 180 unlocked) (layer "B.Fab") hide
      (effects (font (size 1 1) (thickness 0.15)) (justify mirror))
      (tstamp ef22533c-b608-4fff-a86a-925d226d9430)
    )
  )

  (footprint "random keyboard parts:Empty" (layer "B.Cu")
    (tedit 618848ED) (tstamp 87f37d82-b4d9-41de-8e12-8dd0d68076cc)
    (at 152.307483 69.330017)
    (property "Sheetfile" "alt34_bottom.kicad_sch")
    (property "Sheetname" "")
    (path "/07229c46-d4cd-40d9-a8ae-25f100ed821b")
    (fp_text reference "D10" (at 0 0.5 180 unlocked) (layer "B.SilkS") hide
      (effects (font (size 1 1) (thickness 0.15)) (justify mirror))
      (tstamp 15a30e0f-9a6d-4916-b23c-65e10952e286)
    )
    (fp_text value "D" (at 0 -1 180 unlocked) (layer "B.Fab") hide
      (effects (font (size 1 1) (thickness 0.15)) (justify mirror))
      (tstamp 3d917bf5-96c2-46b2-b5e9-e016aefa644a)
    )
  )

  (footprint "random keyboard parts:Empty" (layer "B.Cu")
    (tedit 618848ED) (tstamp 9de9738e-048f-4828-b2a3-26e1eb33ba8a)
    (at 152.307483 88.380017)
    (property "Sheetfile" "alt34_bottom.kicad_sch")
    (property "Sheetname" "")
    (path "/06deea94-43d8-4ec9-887d-837dab19defc")
    (fp_text reference "D15" (at 0 0.5 180 unlocked) (layer "B.SilkS") hide
      (effects (font (size 1 1) (thickness 0.15)) (justify mirror))
      (tstamp 4574bd84-9a15-407e-918a-22bf026aee5e)
    )
    (fp_text value "D" (at 0 -1 180 unlocked) (layer "B.Fab") hide
      (effects (font (size 1 1) (thickness 0.15)) (justify mirror))
      (tstamp db3cec85-0d9d-45c3-ba5e-25ed1437b79b)
    )
  )

  (footprint "random keyboard parts:Empty" (layer "B.Cu")
    (tedit 618848ED) (tstamp a467bd7d-e555-4ccb-989d-42fa19b849e5)
    (at 114.207483 32.280017)
    (property "Sheetfile" "alt34_bottom.kicad_sch")
    (property "Sheetname" "")
    (path "/b14763f6-e9d7-41ed-994f-89d8b4b34426")
    (fp_text reference "D3" (at 0 0.5 180 unlocked) (layer "B.SilkS") hide
      (effects (font (size 1 1) (thickness 0.15)) (justify mirror))
      (tstamp 693c2c67-e5de-4bd8-8294-54aca0de901b)
    )
    (fp_text value "D" (at 0 -1 180 unlocked) (layer "B.Fab") hide
      (effects (font (size 1 1) (thickness 0.15)) (justify mirror))
      (tstamp 9bc6c599-70ac-4d83-8526-a5d998c1c4b4)
    )
  )

  (footprint "random keyboard parts:Empty" (layer "B.Cu")
    (tedit 618848ED) (tstamp af1e7722-ca66-4c8c-b0b5-e10e9f6f5c78)
    (at 114.207483 51.330017)
    (property "Sheetfile" "alt34_bottom.kicad_sch")
    (property "Sheetname" "")
    (path "/44fbdde1-2ea3-4715-8206-058ea8500a54")
    (fp_text reference "D8" (at 0 0.5 180 unlocked) (layer "B.SilkS") hide
      (effects (font (size 1 1) (thickness 0.15)) (justify mirror))
      (tstamp ba66de3f-aeef-4f8d-93d5-568d518ead68)
    )
    (fp_text value "D" (at 0 -1 180 unlocked) (layer "B.Fab") hide
      (effects (font (size 1 1) (thickness 0.15)) (justify mirror))
      (tstamp 174c29bd-ba84-4e43-9881-1b64915665d5)
    )
  )

  (footprint "random keyboard parts:Empty" (layer "B.Cu")
    (tedit 618848ED) (tstamp c62b9f4e-acd9-4ff8-9880-6c87605f30b6)
    (at 133.257483 76.380017)
    (property "Sheetfile" "alt34_bottom.kicad_sch")
    (property "Sheetname" "")
    (path "/bc53b749-7fe0-43b3-91dd-998829e0ae61")
    (fp_text reference "D14" (at 0 0.5 180 unlocked) (layer "B.SilkS") hide
      (effects (font (size 1 1) (thickness 0.15)) (justify mirror))
      (tstamp 613d32ef-9a1c-4359-8e65-c57e0fd585d2)
    )
    (fp_text value "D" (at 0 -1 180 unlocked) (layer "B.Fab") hide
      (effects (font (size 1 1) (thickness 0.15)) (justify mirror))
      (tstamp 16799b41-8cde-45c3-b811-547956635828)
    )
  )

  (footprint "random keyboard parts:Empty" (layer "B.Cu")
    (tedit 618848ED) (tstamp c8f7a5d5-3e17-469d-9c63-ff6290091d65)
    (at 133.257483 38.280017)
    (property "Sheetfile" "alt34_bottom.kicad_sch")
    (property "Sheetname" "")
    (path "/661e8db0-e34d-4630-83ce-1c8d36599812")
    (fp_text reference "D4" (at 0 0.5 180 unlocked) (layer "B.SilkS") hide
      (effects (font (size 1 1) (thickness 0.15)) (justify mirror))
      (tstamp e9da77c5-e036-45cb-b6ae-511438b13e46)
    )
    (fp_text value "D" (at 0 -1 180 unlocked) (layer "B.Fab") hide
      (effects (font (size 1 1) (thickness 0.15)) (justify mirror))
      (tstamp e3394f3f-6f77-4743-9ddf-a9bdca48b213)
    )
  )

  (footprint "random keyboard parts:Empty" (layer "B.Cu")
    (tedit 618848ED) (tstamp d5025d87-3ef1-403f-9334-b5b508e174d5)
    (at 152.307483 50.280017)
    (property "Sheetfile" "alt34_bottom.kicad_sch")
    (property "Sheetname" "")
    (path "/d51bfa7c-c7b6-4e71-8671-d58fb125bc71")
    (fp_text reference "D5" (at 0 0.5 180 unlocked) (layer "B.SilkS") hide
      (effects (font (size 1 1) (thickness 0.15)) (justify mirror))
      (tstamp 8b57d1f6-b0af-45cf-94b0-663a9e5ccb9a)
    )
    (fp_text value "D" (at 0 -1 180 unlocked) (layer "B.Fab") hide
      (effects (font (size 1 1) (thickness 0.15)) (justify mirror))
      (tstamp 77168151-d43d-4c53-82e0-d4784846d436)
    )
  )

  (footprint "random keyboard parts:Empty" (layer "B.Cu")
    (tedit 618848ED) (tstamp db2821e1-5819-43bd-b2c4-4da82227bacd)
    (at 76.107483 59.330017)
    (property "Sheetfile" "alt34_bottom.kicad_sch")
    (property "Sheetname" "")
    (path "/21aecf4d-236d-477a-9118-8f40ecd6d65c")
    (fp_text reference "D6" (at 0 0.5 180 unlocked) (layer "B.SilkS") hide
      (effects (font (size 1 1) (thickness 0.15)) (justify mirror))
      (tstamp 8a39c8bd-016d-482d-b13a-df90343b2114)
    )
    (fp_text value "D" (at 0 -1 180 unlocked) (layer "B.Fab") hide
      (effects (font (size 1 1) (thickness 0.15)) (justify mirror))
      (tstamp 52fb16c2-0532-483c-a378-f16b9725240b)
    )
  )

  (footprint "random keyboard parts:Empty" (layer "B.Cu")
    (tedit 618848ED) (tstamp e0637780-20e9-4ed3-a347-3bf00d57e358)
    (at 87.499168 97.628343 15)
    (property "Sheetfile" "alt34_bottom.kicad_sch")
    (property "Sheetname" "")
    (path "/2ffb07c5-2c80-4303-b36f-1b03e8fb7395")
    (fp_text reference "D17" (at 0 0.5 195 unlocked) (layer "B.SilkS") hide
      (effects (font (size 1 1) (thickness 0.15)) (justify mirror))
      (tstamp a345636e-1f24-4f7a-a489-26777e9df10f)
    )
    (fp_text value "D" (at 0 -1 195 unlocked) (layer "B.Fab") hide
      (effects (font (size 1 1) (thickness 0.15)) (justify mirror))
      (tstamp 5c16149b-8974-4743-8a82-84a76862404f)
    )
  )

  (footprint "random keyboard parts:Empty" (layer "B.Cu")
    (tedit 618848ED) (tstamp f6bdf22c-d015-4c2a-8095-b43f63699a1a)
    (at 133.257483 57.330017)
    (property "Sheetfile" "alt34_bottom.kicad_sch")
    (property "Sheetname" "")
    (path "/eee29088-e3e1-41a0-87fa-d2aef7159e81")
    (fp_text reference "D9" (at 0 0.5 180 unlocked) (layer "B.SilkS") hide
      (effects (font (size 1 1) (thickness 0.15)) (justify mirror))
      (tstamp 840aba3d-0df1-4cfc-94f7-bb3f54aa66f3)
    )
    (fp_text value "D" (at 0 -1 180 unlocked) (layer "B.Fab") hide
      (effects (font (size 1 1) (thickness 0.15)) (justify mirror))
      (tstamp 94f65adc-e82f-4b35-8785-60a9facf63da)
    )
  )

  (gr_curve (pts (xy 104.648191 17.577612) (xy 104.499334 17.726469) (xy 104.415707 17.928362) (xy 104.415707 18.138877))
    (stroke (width 0.2) (type solid)) (layer "Edge.Cuts") (tstamp 01f07488-e410-4641-84b6-e57db066406c))
  (gr_line (start 122.671932 17.345128) (end 105.209456 17.345128)
    (stroke (width 0.2) (type solid)) (layer "Edge.Cuts") (tstamp 032c0019-c721-4008-a5de-a8ebabed1537))
  (gr_curve (pts (xy 118.880468 40.942841) (xy 115.059419 37.121792) (xy 109.876966 34.975149) (xy 104.473187 34.975149))
    (stroke (width 0.2) (type solid)) (layer "Edge.Cuts") (tstamp 038be379-9b19-4ee7-bfaf-c893b514e433))
  (gr_curve (pts (xy 62.614937 113.351428) (xy 62.818095 113.406068) (xy 63.034644 113.377662) (xy 63.216836 113.272473))
    (stroke (width 0.2) (type solid)) (layer "Edge.Cuts") (tstamp 0a795128-28fb-486e-8280-529205acb746))
  (gr_curve (pts (xy 90.065906 69.757403) (xy 95.893107 75.584604) (xy 104.656746 77.3278) (xy 112.270351 74.174142))
    (stroke (width 0.2) (type solid)) (layer "Edge.Cuts") (tstamp 11120c23-d0c9-482b-a0a3-df675b541182))
  (gr_curve (pts (xy 142.283171 23.577754) (xy 142.134314 23.428897) (xy 141.932421 23.345271) (xy 141.721906 23.345271))
    (stroke (width 0.2) (type solid)) (layer "Edge.Cuts") (tstamp 135de3e1-1a56-4d72-ba85-2803e3e51375))
  (gr_curve (pts (xy 143.309404 35.345556) (xy 143.098889 35.345556) (xy 142.896995 35.261929) (xy 142.748139 35.113072))
    (stroke (width 0.2) (type solid)) (layer "Edge.Cuts") (tstamp 155d3659-d1b1-493c-9c98-07efc10006e2))
  (gr_line (start 104.415707 18.138877) (end 104.415707 22.051811)
    (stroke (width 0.2) (type solid)) (layer "Edge.Cuts") (tstamp 2191aa95-9d69-4df5-a65d-549b678bdc6a))
  (gr_curve (pts (xy 161.333145 35.57804) (xy 161.184288 35.429183) (xy 160.982395 35.345556) (xy 160.77188 35.345556))
    (stroke (width 0.2) (type solid)) (layer "Edge.Cuts") (tstamp 2267d413-d620-4166-9632-ea1646ed32b0))
  (gr_curve (pts (xy 78.339706 104.54124) (xy 78.796012 104.277789) (xy 79.284845 104.075208) (xy 79.793742 103.93866))
    (stroke (width 0.2) (type solid)) (layer "Edge.Cuts") (tstamp 2b56be40-5ecd-455a-93f7-7fde6b647d0a))
  (gr_curve (pts (xy 142.515655 24.139019) (xy 142.515655 23.928504) (xy 142.432028 23.726611) (xy 142.283171 23.577754))
    (stroke (width 0.2) (type solid)) (layer "Edge.Cuts") (tstamp 38c0da39-933e-4757-a3d9-82eec5ef80f4))
  (gr_curve (pts (xy 161.565629 36.139305) (xy 161.565629 35.92879) (xy 161.482002 35.726897) (xy 161.333145 35.57804))
    (stroke (width 0.2) (type solid)) (layer "Edge.Cuts") (tstamp 3e82960e-ce29-4cea-9f10-f9c53b32c24c))
  (gr_line (start 47.137369 86.893582) (end 62.133848 112.981198)
    (stroke (width 0.2) (type solid)) (layer "Edge.Cuts") (tstamp 3f91d8c7-9012-4739-b52c-ef974d1a37ac))
  (gr_curve (pts (xy 96.714623 99.398437) (xy 97.215869 99.263943) (xy 97.669975 98.993025) (xy 98.026422 98.615822))
    (stroke (width 0.2) (type solid)) (layer "Edge.Cuts") (tstamp 4a8f2731-9a3a-4ee6-a049-9d3689294b5b))
  (gr_line (start 46.741786 43.665132) (end 46.741786 85.411682)
    (stroke (width 0.2) (type solid)) (layer "Edge.Cuts") (tstamp 4bf2a93c-2677-4b27-9be8-e1fab36aa10f))
  (gr_curve (pts (xy 161.333145 92.262995) (xy 161.482002 92.114138) (xy 161.565629 91.912245) (xy 161.565629 91.701729))
    (stroke (width 0.2) (type solid)) (layer "Edge.Cuts") (tstamp 512703ba-c579-4a3e-9bff-16e9fa3963f0))
  (gr_line (start 138.008148 87.991461) (end 141.954173 91.93443)
    (stroke (width 0.2) (type solid)) (layer "Edge.Cuts") (tstamp 56d4d29a-7a1b-476c-8a08-88bef95ffcae))
  (gr_line (start 63.216836 113.272473) (end 78.339706 104.54124)
    (stroke (width 0.2) (type solid)) (layer "Edge.Cuts") (tstamp 58df4f7f-bd76-41b2-9943-3337d8d36c36))
  (gr_curve (pts (xy 123.233197 17.577612) (xy 123.08434 17.428755) (xy 122.882447 17.345128) (xy 122.671932 17.345128))
    (stroke (width 0.2) (type solid)) (layer "Edge.Cuts") (tstamp 5935b9bb-b601-4783-bfad-e6210154bffe))
  (gr_line (start 141.721906 23.345271) (end 124.25943 23.345271)
    (stroke (width 0.2) (type solid)) (layer "Edge.Cuts") (tstamp 5acd0a59-337d-4d3b-94c2-2ca9a3b539f1))
  (gr_curve (pts (xy 142.748139 35.113072) (xy 142.599282 34.964216) (xy 142.515655 34.762323) (xy 142.515655 34.551807))
    (stroke (width 0.2) (type solid)) (layer "Edge.Cuts") (tstamp 5f353e96-ced1-424b-a099-bd3f65369848))
  (gr_curve (pts (xy 124.848159 55.350122) (xy 124.848159 49.946343) (xy 122.701517 44.763889) (xy 118.880468 40.942841))
    (stroke (width 0.2) (type solid)) (layer "Edge.Cuts") (tstamp 64860354-a2f1-4b67-8121-255f8f4c4bd4))
  (gr_curve (pts (xy 86.159482 22.84556) (xy 85.948966 22.84556) (xy 85.747073 22.929187) (xy 85.598217 23.078044))
    (stroke (width 0.2) (type solid)) (layer "Edge.Cuts") (tstamp 6d8fd576-3ac0-47f1-8f15-795d4f869321))
  (gr_line (start 65.588672 42.871383) (end 47.535535 42.871383)
    (stroke (width 0.2) (type solid)) (layer "Edge.Cuts") (tstamp 71b5783f-c44e-435b-ad27-e88c3ac2ace9))
  (gr_line (start 84.571984 25.345146) (end 67.176169 25.345146)
    (stroke (width 0.2) (type solid)) (layer "Edge.Cuts") (tstamp 7d259fd4-69af-478d-9884-8437f5908b32))
  (gr_curve (pts (xy 160.77188 92.495478) (xy 160.982395 92.495478) (xy 161.184288 92.411851) (xy 161.333145 92.262995))
    (stroke (width 0.2) (type solid)) (layer "Edge.Cuts") (tstamp 7e389230-b30a-42a3-bb20-6885c0910460))
  (gr_curve (pts (xy 141.954173 91.93443) (xy 142.313699 92.293678) (xy 142.801154 92.495478) (xy 143.309404 92.495478))
    (stroke (width 0.2) (type solid)) (layer "Edge.Cuts") (tstamp 87179afc-a98c-4345-821f-38e3719363a0))
  (gr_curve (pts (xy 104.415707 22.051811) (xy 104.415707 22.262326) (xy 104.33208 22.46422) (xy 104.183223 22.613076))
    (stroke (width 0.2) (type solid)) (layer "Edge.Cuts") (tstamp 880b9e2f-9ea7-436a-820d-26b4e252fccc))
  (gr_curve (pts (xy 124.25943 23.345271) (xy 124.048915 23.345271) (xy 123.847021 23.261644) (xy 123.698165 23.112787))
    (stroke (width 0.2) (type solid)) (layer "Edge.Cuts") (tstamp 9224aa2a-434d-4d9c-9e28-995248af08a7))
  (gr_curve (pts (xy 105.209456 17.345128) (xy 104.99894 17.345128) (xy 104.797047 17.428755) (xy 104.648191 17.577612))
    (stroke (width 0.2) (type solid)) (layer "Edge.Cuts") (tstamp 9516a7c0-3b8b-4c35-94a5-ddae4662dad2))
  (gr_curve (pts (xy 66.614903 25.577629) (xy 66.466047 25.726486) (xy 66.38242 25.928379) (xy 66.38242 26.138895))
    (stroke (width 0.2) (type solid)) (layer "Edge.Cuts") (tstamp 969bb23e-618e-4ef3-bbe0-c85ba5ad0bfe))
  (gr_line (start 79.793742 103.93866) (end 96.714623 99.398437)
    (stroke (width 0.2) (type solid)) (layer "Edge.Cuts") (tstamp 96c83c77-07ca-43a4-91f5-ec609c60b9dc))
  (gr_curve (pts (xy 106.754147 89.3799) (xy 108.494054 87.53868) (xy 110.915481 86.495335) (xy 113.448734 86.495334))
    (stroke (width 0.2) (type solid)) (layer "Edge.Cuts") (tstamp 99b5ee63-ed48-4e2a-abc5-0a03c50d8f6a))
  (gr_line (start 143.309404 92.495478) (end 160.77188 92.495478)
    (stroke (width 0.2) (type solid)) (layer "Edge.Cuts") (tstamp 9c31895a-0a5e-4488-8d6f-ebc0584216d5))
  (gr_line (start 104.415707 18.138877) (end 104.415707 18.138877)
    (stroke (width 0.2) (type solid)) (layer "Edge.Cuts") (tstamp 9dc5cf6d-ad9b-4ddc-a569-4b101840c10d))
  (gr_curve (pts (xy 66.149936 42.6389) (xy 66.00108 42.787756) (xy 65.799187 42.871383) (xy 65.588672 42.871383))
    (stroke (width 0.2) (type solid)) (layer "Edge.Cuts") (tstamp 9f85c0cc-391d-4de2-9240-f7ba31886866))
  (gr_line (start 104.473187 34.975149) (end 104.473187 34.975149)
    (stroke (width 0.2) (type solid)) (layer "Edge.Cuts") (tstamp a104f4b9-0f9a-46e9-919d-af1ce10515c0))
  (gr_curve (pts (xy 104.183223 22.613076) (xy 104.034366 22.761933) (xy 103.832473 22.84556) (xy 103.621958 22.84556))
    (stroke (width 0.2) (type solid)) (layer "Edge.Cuts") (tstamp a227a8ce-dcbf-4602-8571-71d3d9879278))
  (gr_line (start 85.365733 23.639309) (end 85.365733 24.551397)
    (stroke (width 0.2) (type solid)) (layer "Edge.Cuts") (tstamp a74ed8ae-a393-421b-a1b2-437db303aa98))
  (gr_line (start 98.026422 98.615822) (end 106.754147 89.3799)
    (stroke (width 0.2) (type solid)) (layer "Edge.Cuts") (tstamp a7f91df1-89f0-42e3-b7f3-b1de51401305))
  (gr_curve (pts (xy 134.394199 86.495334) (xy 135.749532 86.495334) (xy 137.049412 87.033467) (xy 138.008148 87.991461))
    (stroke (width 0.2) (type solid)) (layer "Edge.Cuts") (tstamp a84f2617-ab30-4d9d-affc-96c73ec0fc1d))
  (gr_curve (pts (xy 62.133848 112.981198) (xy 62.238695 113.163588) (xy 62.411779 113.296787) (xy 62.614937 113.351428))
    (stroke (width 0.2) (type solid)) (layer "Edge.Cuts") (tstamp a96f8786-b4c7-4d3f-971a-bda187567910))
  (gr_curve (pts (xy 85.133249 25.112662) (xy 84.984392 25.261519) (xy 84.782499 25.345146) (xy 84.571984 25.345146))
    (stroke (width 0.2) (type solid)) (layer "Edge.Cuts") (tstamp ac282873-1ef3-4a07-aa75-f03bcb4adba9))
  (gr_curve (pts (xy 46.97427 43.103867) (xy 46.825413 43.252724) (xy 46.741786 43.454617) (xy 46.741786 43.665132))
    (stroke (width 0.2) (type solid)) (layer "Edge.Cuts") (tstamp ade5b97b-b32a-46aa-b0b9-2bd22e73700c))
  (gr_line (start 142.515655 34.551807) (end 142.515655 24.139019)
    (stroke (width 0.2) (type solid)) (layer "Edge.Cuts") (tstamp ae6d1e0f-8751-43c7-bf08-7f54642a74ee))
  (gr_line (start 113.448734 86.495334) (end 134.394199 86.495334)
    (stroke (width 0.2) (type solid)) (layer "Edge.Cuts") (tstamp aecafb59-3c32-4fcb-8f6e-3b929eaf2273))
  (gr_curve (pts (xy 46.741786 85.411682) (xy 46.741786 85.931743) (xy 46.878185 86.442709) (xy 47.137369 86.893582))
    (stroke (width 0.2) (type solid)) (layer "Edge.Cuts") (tstamp b03509c2-2cc8-4098-a578-2a405f8b4af4))
  (gr_line (start 161.565629 91.701729) (end 161.565629 36.139305)
    (stroke (width 0.2) (type solid)) (layer "Edge.Cuts") (tstamp b460d7c9-74ca-4e54-8335-2e3139314dc1))
  (gr_line (start 123.465681 22.551522) (end 123.465681 18.138877)
    (stroke (width 0.2) (type solid)) (layer "Edge.Cuts") (tstamp b634e017-90e3-493a-bd3d-66546c30d0ff))
  (gr_curve (pts (xy 85.365733 24.551397) (xy 85.365733 24.761912) (xy 85.282106 24.963805) (xy 85.133249 25.112662))
    (stroke (width 0.2) (type solid)) (layer "Edge.Cuts") (tstamp b8a73413-2080-40bb-9b30-a951b3d3bc1f))
  (gr_curve (pts (xy 85.649167 47.552957) (xy 82.495508 55.166563) (xy 84.238704 63.930202) (xy 90.065906 69.757403))
    (stroke (width 0.2) (type solid)) (layer "Edge.Cuts") (tstamp c128bd95-e1c3-4f08-ba86-69e570825002))
  (gr_curve (pts (xy 123.465681 18.138877) (xy 123.465681 17.928362) (xy 123.382054 17.726469) (xy 123.233197 17.577612))
    (stroke (width 0.2) (type solid)) (layer "Edge.Cuts") (tstamp c3e24c88-d1d8-425b-81b3-8ea99238010d))
  (gr_curve (pts (xy 66.38242 42.077634) (xy 66.38242 42.28815) (xy 66.298794 42.490043) (xy 66.149936 42.6389))
    (stroke (width 0.2) (type solid)) (layer "Edge.Cuts") (tstamp c5b7f2fa-1cb6-4fbe-b78d-4f7e8cd9fcfb))
  (gr_curve (pts (xy 123.698165 23.112787) (xy 123.549308 22.96393) (xy 123.465681 22.762037) (xy 123.465681 22.551522))
    (stroke (width 0.2) (type solid)) (layer "Edge.Cuts") (tstamp c6a2e1ff-0a45-4c23-b7e6-5b685a478dae))
  (gr_curve (pts (xy 85.598217 23.078044) (xy 85.44936 23.226901) (xy 85.365733 23.428794) (xy 85.365733 23.639309))
    (stroke (width 0.2) (type solid)) (layer "Edge.Cuts") (tstamp ced89f8c-dae6-4d5f-9fde-aa6754658a87))
  (gr_line (start 66.38242 26.138895) (end 66.38242 42.077634)
    (stroke (width 0.2) (type solid)) (layer "Edge.Cuts") (tstamp d5686a50-60bb-490d-bcf0-e951ba66c042))
  (gr_curve (pts (xy 47.535535 42.871383) (xy 47.32502 42.871383) (xy 47.123127 42.95501) (xy 46.97427 43.103867))
    (stroke (width 0.2) (type solid)) (layer "Edge.Cuts") (tstamp de2a3ddc-692f-4f31-944b-39d2044d0f95))
  (gr_curve (pts (xy 112.270351 74.174142) (xy 119.883957 71.020483) (xy 124.848159 63.591029) (xy 124.848159 55.350122))
    (stroke (width 0.2) (type solid)) (layer "Edge.Cuts") (tstamp e3cbccdc-5753-40b4-80d0-ce5522dcd354))
  (gr_curve (pts (xy 104.473187 34.975149) (xy 96.23228 34.975149) (xy 88.802825 39.939352) (xy 85.649167 47.552957))
    (stroke (width 0.2) (type solid)) (layer "Edge.Cuts") (tstamp e6a081cd-8c66-4975-aff8-ef7a4dd19f01))
  (gr_curve (pts (xy 67.176169 25.345146) (xy 66.965654 25.345146) (xy 66.763761 25.428773) (xy 66.614903 25.577629))
    (stroke (width 0.2) (type solid)) (layer "Edge.Cuts") (tstamp ec703b49-e02a-4ce7-afe6-b20bd26c4b9e))
  (gr_line (start 103.621958 22.84556) (end 86.159482 22.84556)
    (stroke (width 0.2) (type solid)) (layer "Edge.Cuts") (tstamp ed7f4fcf-0a47-46f8-bcc4-4521637422a3))
  (gr_line (start 160.77188 35.345556) (end 143.309404 35.345556)
    (stroke (width 0.2) (type solid)) (layer "Edge.Cuts") (tstamp f7bad7c5-0cbe-402b-977b-2f530cd7d0b9))

  (group "" (id 190834fe-8084-4642-8e4f-c0c1138492e9)
    (members
      01f07488-e410-4641-84b6-e57db066406c
      032c0019-c721-4008-a5de-a8ebabed1537
      038be379-9b19-4ee7-bfaf-c893b514e433
      0a795128-28fb-486e-8280-529205acb746
      11120c23-d0c9-482b-a0a3-df675b541182
      135de3e1-1a56-4d72-ba85-2803e3e51375
      155d3659-d1b1-493c-9c98-07efc10006e2
      2191aa95-9d69-4df5-a65d-549b678bdc6a
      2267d413-d620-4166-9632-ea1646ed32b0
      2b56be40-5ecd-455a-93f7-7fde6b647d0a
      38c0da39-933e-4757-a3d9-82eec5ef80f4
      3e82960e-ce29-4cea-9f10-f9c53b32c24c
      3f91d8c7-9012-4739-b52c-ef974d1a37ac
      4a8f2731-9a3a-4ee6-a049-9d3689294b5b
      4bf2a93c-2677-4b27-9be8-e1fab36aa10f
      512703ba-c579-4a3e-9bff-16e9fa3963f0
      56d4d29a-7a1b-476c-8a08-88bef95ffcae
      58df4f7f-bd76-41b2-9943-3337d8d36c36
      5935b9bb-b601-4783-bfad-e6210154bffe
      5acd0a59-337d-4d3b-94c2-2ca9a3b539f1
      5f353e96-ced1-424b-a099-bd3f65369848
      64860354-a2f1-4b67-8121-255f8f4c4bd4
      6d8fd576-3ac0-47f1-8f15-795d4f869321
      71b5783f-c44e-435b-ad27-e88c3ac2ace9
      7d259fd4-69af-478d-9884-8437f5908b32
      7e389230-b30a-42a3-bb20-6885c0910460
      87179afc-a98c-4345-821f-38e3719363a0
      880b9e2f-9ea7-436a-820d-26b4e252fccc
      9224aa2a-434d-4d9c-9e28-995248af08a7
      9516a7c0-3b8b-4c35-94a5-ddae4662dad2
      969bb23e-618e-4ef3-bbe0-c85ba5ad0bfe
      96c83c77-07ca-43a4-91f5-ec609c60b9dc
      99b5ee63-ed48-4e2a-abc5-0a03c50d8f6a
      9c31895a-0a5e-4488-8d6f-ebc0584216d5
      9dc5cf6d-ad9b-4ddc-a569-4b101840c10d
      9f85c0cc-391d-4de2-9240-f7ba31886866
      a104f4b9-0f9a-46e9-919d-af1ce10515c0
      a227a8ce-dcbf-4602-8571-71d3d9879278
      a74ed8ae-a393-421b-a1b2-437db303aa98
      a7f91df1-89f0-42e3-b7f3-b1de51401305
      a84f2617-ab30-4d9d-affc-96c73ec0fc1d
      a96f8786-b4c7-4d3f-971a-bda187567910
      ac282873-1ef3-4a07-aa75-f03bcb4adba9
      ade5b97b-b32a-46aa-b0b9-2bd22e73700c
      ae6d1e0f-8751-43c7-bf08-7f54642a74ee
      aecafb59-3c32-4fcb-8f6e-3b929eaf2273
      b03509c2-2cc8-4098-a578-2a405f8b4af4
      b460d7c9-74ca-4e54-8335-2e3139314dc1
      b634e017-90e3-493a-bd3d-66546c30d0ff
      b8a73413-2080-40bb-9b30-a951b3d3bc1f
      c128bd95-e1c3-4f08-ba86-69e570825002
      c3e24c88-d1d8-425b-81b3-8ea99238010d
      c5b7f2fa-1cb6-4fbe-b78d-4f7e8cd9fcfb
      c6a2e1ff-0a45-4c23-b7e6-5b685a478dae
      ced89f8c-dae6-4d5f-9fde-aa6754658a87
      d5686a50-60bb-490d-bcf0-e951ba66c042
      de2a3ddc-692f-4f31-944b-39d2044d0f95
      e3cbccdc-5753-40b4-80d0-ce5522dcd354
      e6a081cd-8c66-4975-aff8-ef7a4dd19f01
      ec703b49-e02a-4ce7-afe6-b20bd26c4b9e
      ed7f4fcf-0a47-46f8-bcc4-4521637422a3
      f7bad7c5-0cbe-402b-977b-2f530cd7d0b9
    )
  )
)
